Name,Place,Division,Sex,Equipment,State,WeightClassKg,BodyweightKg,Age,Best3SquatKg,Squat4Kg,Best3BenchKg,Bench4Kg,Best3DeadliftKg,Deadlift4Kg,TotalKg,Event
Maddie Mills,1,Junior 16-17,F,Raw,WA,52,49.02,16,25.00,,37.50,,70.00,,132.50,SBD
Jocelyn Powell,1,Junior 20-23,F,Raw,OR,56,54.50,22,117.50,,47.50,,127.50,,292.50,SBD
Magali Uriostegui,DQ,Junior 20-23,F,Raw,WA,60,59.87,22,-77.50,,47.50,,97.50,,,SBD
Elyse Humphreys,1,Junior 18-19,F,Raw,ID,67.5,60.33,19,95.00,,50.00,,125.00,,270.00,SBD
Jennifer Combs,1,Junior 20-23,F,Raw,WA,67.5,66.77,21,155.00,,97.50,,175.00,,427.50,SBD
Rubi Robles,DQ,Open,F,Raw,WA,52,50.40,33,-112.50,,72.50,,125.00,,,SBD
Susan Boon,DQ,Open,F,Raw,WA,56,52.62,55,-95.00,,50.00,,100.00,,,SBD
Jennifer Combs,1,Open,F,Raw,WA,67.5,66.77,21,155.00,,97.50,,175.00,,427.50,SBD
Tori Gray,2,Open,F,Raw,ID,67.5,64.86,53,92.50,,47.50,,133.00,,273.00,SBD
Tori Gray,1,Master 50-54,F,Raw,ID,67.5,64.86,53,92.50,,47.50,,133.00,,273.00,SBD
Susan Boon,DQ,Master 55-59,F,Raw,WA,56,52.62,55,-95.00,,50.00,,100.00,,,SBD
Justin McWilliams,1,Junior 20-23,M,Raw,ID,75,72.63,23,130.00,,110.00,,177.50,,417.50,SBD
Isai Mejia,DQ,Junior 20-23,M,Raw,WA,75,74.86,21,147.50,,-105.00,,192.50,,,SBD
Colby Fasoli,1,Junior 20-23,M,Raw,WA,82.5,79.40,21,182.50,185,130.00,,227.50,,540.00,SBD
Jake Enger,1,Junior 20-23,M,Raw,WA,90,89.87,21,197.50,,125.00,,227.50,,550.00,SBD
Benjamin Mattax,2,Junior 20-23,M,Raw,WA,90,85.79,22,182.50,,130.00,,200.00,,512.50,SBD
Brandon Love,1,Junior 20-23,M,Raw,WA,100,99.39,23,227.50,,182.50,,250.00,,660.00,SBD
Troy Zuroske,2,Junior 20-23,M,Raw,WA,100,99.34,22,227.50,,125.00,,275.00,,627.50,SBD
David Gillespie,1,Junior 20-23,M,Raw,WA,110,109.86,22,250.00,,155.00,,285.00,,690.00,SBD
Dakota Thomas,2,Junior 20-23,M,Raw,WA,110,107.05,21,242.50,,167.50,,277.50,287.5,687.50,SBD
Arturo Uriostegui,1,Open,M,Raw,WA,67.5,65.82,25,150.00,,135.00,,195.00,,480.00,SBD
Patrick Hickey,2,Open,M,Raw,WA,67.5,66.27,32,170.00,,107.50,,200.00,,477.50,SBD
Broc Fredson,3,Open,M,Raw,WA,67.5,65.86,24,150.00,,110.00,,207.50,210,467.50,SBD
Jose Moran,4,Open,M,Raw,WA,67.5,64.89,25,87.50,,75.00,,112.50,,275.00,SBD
Alex Castro,DQ,Open,M,Raw,WA,67.5,66.22,24,135.00,,-105.00,,-190.00,,,SBD
Andrew Clement,1,Open,M,Raw,WA,75,74.93,29,142.50,,125.00,,190.00,,457.50,SBD
Sean Urbina,1,Open,M,Raw,WA,82.5,81.70,28,182.50,,142.50,,227.50,,552.50,SBD
Colby Fasoli,2,Open,M,Raw,WA,82.5,79.40,21,182.50,,130.00,,227.50,,540.00,SBD
Johan Olivera,DQ,Open,M,Raw,WA,82.5,82.11,24,-147.50,,130.00,,-185.00,,,SBD
Steadman Mathis,1,Open,M,Raw,WA,90,89.13,30,170.00,,160.00,,227.50,,557.50,SBD
Jeremy Sankwich,2,Open,M,Raw,WA,90,88.04,28,150.00,,125.00,,195.00,,470.00,SBD
Brandon Love,1,Open,M,Raw,WA,100,99.39,23,227.50,,182.50,,250.00,,660.00,SBD
Dallas Reilly,1,Open,M,Raw,WA,110,108.86,28,247.50,,160.00,,275.00,,682.50,SBD
Steven Holm,2,Open,M,Raw,WA,110,106.19,29,205.00,,137.50,,220.00,,562.50,SBD
Josh Dakin,1,Open,M,Raw,ID,125,112.49,25,300.00,,177.50,,320.00,,797.50,SBD
Josh Buckley Smith,2,Open,M,Raw,WA,125,122.29,30,160.00,,142.50,,247.50,,550.00,SBD
Valentino Robles,DQ,Open,M,Raw,WA,125,118.52,33,265.00,,-170.00,,,,,SBD
Kyle Byrd,DQ,Open,M,Raw,WA,125,120.66,25,205.00,,-150.00,,227.50,,,SBD
Grant Higa,1,Open,M,Raw,WA,140,138.86,43,322.50,,200.00,,322.50,,845.00,SBD
Mitch Vendor,1,Submaster 35-39,M,Raw,WA,125,123.83,36,217.50,,140.00,,235.00,,592.50,SBD
Grant Higa,1,Master 40-44,M,Raw,WA,140,138.86,43,322.50,,200.00,,322.50,,845.00,SBD
Ashley Condray,1,Open,F,Wraps,WA,60,59.51,26,130.00,,72.50,,172.50,,375.00,SBD
Tasha Whelan,2,Open,F,Wraps,WA,60,59.03,29,120.00,,75.00,,150.00,,345.00,SBD
Cindy Shockman,1,Open,F,Wraps,OR,75,73.26,47,117.50,,97.50,,155.00,,370.00,SBD
Sasha Coleman,1,Open,F,Wraps,WA,90+,96.20,31,162.50,,95.00,,152.50,,410.00,SBD
Sonia Alverez,2,Open,F,Wraps,OR,90+,95.71,27,120.00,,70.00,,155.00,,345.00,SBD
Bella Martinez,1,Sub Master 35-39,F,Wraps,WA,75,74.93,37,140.00,150,67.50,,150.00,160,357.50,SBD
Cindy Shockman,1,Master 45-49,F,Wraps,OR,75,73.26,47,117.50,122.5,97.50,,155.00,160,370.00,SBD
Kris Woods,1,Junior 18-19,M,Wraps,WA,90,87.58,18,192.50,,125.00,,215.00,,532.50,SBD
John Talkington,1,Junior 18-19,M,Wraps,WA,100,96.62,19,175.00,,117.50,,230.00,,522.50,SBD
Randy Quinn,DQ,Junior 18-19,M,Wraps,WA,100,99.87,19,-297.50,,187.50,,277.50,,,SBD
Trystan Leoppard,1,Junior 18-19,M,Wraps,WA,110,103.91,18,227.50,,137.50,,242.50,,607.50,SBD
Elias Perez,1,Junior 20-23,M,Wraps,WA,110,109.77,23,270.00,,195.00,,272.50,,737.50,SBD
Zachary Price,1,Junior 18-19,M,Wraps,WA,125,118.84,18,202.50,,127.50,,205.00,,535.00,SBD
Ken Keller,1,Junior 20-23,M,Wraps,WA,140+,151.05,20,195.00,,152.50,,185.00,,532.50,SBD
Russel Fox,1,Open,M,Wraps,OR,67.5,65.38,23,152.50,,97.50,,185.00,,435.00,SBD
Rob Brooks,1,Open,M,Wraps,WA,75,74.39,27,195.00,,135.00,,230.00,,560.00,SBD
Dan Stephenson,1,Open,M,Wraps,WA,82.5,80.76,25,192.50,197.5,142.50,,227.50,,562.50,SBD
Gregory Grogan,2,Open,M,Wraps,WA,82.5,80.30,31,192.50,,122.50,,232.50,,547.50,SBD
Daniel Martinez,1,Open,M,Wraps,WA,90,88.97,37,235.00,242.5,180.00,,237.50,247.5,652.50,SBD
TJ Mick,2,Open,M,Wraps,WA,90,89.99,24,205.00,,145.00,,267.50,,617.50,SBD
Luke Thomas,3,Open,M,Wraps,WA,90,89.81,23,235.00,,127.50,,245.00,,607.50,SBD
Lee Dougherty,1,Open,M,Wraps,WA,100,99.34,35,285.00,,190.00,,280.00,,755.00,SBD
Lionel Orji,2,Open,M,Wraps,WA,100,99.06,28,260.00,,182.50,,295.00,,737.50,SBD
Jimmy Duede,3,Open,M,Wraps,WA,100,97.59,25,280.00,,147.50,,285.00,,712.50,SBD
Ben Tuia,4,Open,M,Wraps,WA,100,97.98,30,220.00,,145.00,,282.50,,647.50,SBD
Theodore Bosch,5,Open,M,Wraps,WA,100,96.20,25,217.50,,145.00,,235.00,,597.50,SBD
Jaime Almassim,6,Open,M,Wraps,WA,100,95.16,24,190.00,,152.50,,227.50,,570.00,SBD
Zack Siddall,7,Open,M,Wraps,WA,100,96.80,24,182.50,,135.00,,220.00,,537.50,SBD
Brian Johnson,8,Open,M,Wraps,OR,100,98.20,34,155.00,,122.50,,195.00,,472.50,SBD
Randy Quinn,DQ,Open,M,Wraps,WA,100,99.87,19,-297.50,,182.50,,277.50,,,SBD
Thomas Van Boven,DQ,Open,M,Wraps,WA,100,94.81,24,245.00,,150.00,,-267.50,,,SBD
Tim Smith,DQ,Open,M,Wraps,WA,110,109.86,24,247.50,,-230.00,,,,,SBD
Jason Payne,1,Open,M,Wraps,WA,125,124.74,37,320.00,,205.00,,367.50,,892.50,SBD
Christopher Kisling,2,Open,M,Wraps,WA,125,119.35,25,290.00,,150.00,,327.50,,767.50,SBD
Russ Petty,1,Open,M,Wraps,WA,140,130.19,37,252.50,,227.50,,370.00,,850.00,SBD
Ryan Coleman,2,Open,M,Wraps,WA,140,130.67,32,272.50,,170.00,,260.00,,702.50,SBD
Daniel Martinez,1,Submaster 35-39,M,Wraps,WA,90,88.97,37,235.00,242.5,180.00,,237.50,247.5,652.50,SBD
Hector Mejia,1,Submaster 35-39,M,Wraps,WA,140,137.44,35,205.00,,130.00,,195.00,,530.00,SBD
Matthew Davis,1,Submaster 40-44,M,Wraps,WA,140,137.08,42,352.50,,220.00,,277.50,,850.00,SBD
Steve Molzgraf,DQ,Master 50-54,M,Wraps,WA,90,89.86,50,-195.00,,,,,,,SBD
Mel Weil,1,Master 45-49,M,Wraps,ID,100,99.56,45,180.00,,190.00,,177.50,,547.50,SBD
Ruben Ramirez,1,Junior 18-19,M,Single-ply,WA,90,88.50,19,237.50,,132.50,,227.50,,597.50,SBD
Tyler Stevens,1,Open,M,Single-ply,WA,82.5,78.93,25,190.00,192.5,105.00,,207.50,217.5,502.50,SBD
Chris Ray,1,Open,M,Single-ply,ID,100,97.59,40,265.00,,165.00,,290.00,,720.00,SBD
Chris Ray,1,Master 40-44,M,Single-ply,ID,100,97.59,40,265.00,,165.00,,290.00,,720.00,SBD
Susan Boon,1,Master 55-59,F,Raw,WA,56,52.62,55,,,50.00,,,,50.00,B
Randy Quinn,1,Junior 18-19,M,Raw,WA,100,99.87,19,,,182.50,187.5,,,182.50,B
Augustin Rangel,1,Open,M,Raw,WA,82.5,80.33,31,,,175.00,182.5,,,175.00,B
Zach Miller,1,Open,M,Raw,WA,90,89.04,27,,,185.00,,,,185.00,B
Tim Schmidt,1,Open,M,Raw,WA,125,123.89,29,,,240.00,,,,240.00,B
Adam Loyd,1,Open,M,Raw,WA,140,134.54,34,,,220.00,,,,220.00,B
Robert Miller,1,Master 45-49,M,Raw,WA,90,88.04,47,,,187.50,,,,187.50,B
Mitch Crowe,1,Master 50-54,M,Raw,WA,90,89.63,52,,,155.00,,,,155.00,B
Robert Heriford,1,Master 70-74,M,Raw,WA,100,90.81,70,,,112.50,,,,112.50,B
Mari Bingham,1,Open,F,Raw,WA,90+,112.99,26,,,,,160.00,,160.00,D
Susan Boon,1,Master 55-59,F,Raw,WA,56,52.62,55,,,,,100.00,,100.00,D
Randy Quinn,1,Junior 18-19,M,Raw,WA,100,99.87,19,,,,,277.50,,277.50,D
Danny Grigsby,1,Junior 20-23,M,Raw,WA,110,104.35,20,,,,,312.50,,312.50,D
Tim Schmidt,1,Open,M,Raw,WA,125,123.89,29,,,,,320.00,,320.00,D
Adam Loyd,1,Open,M,Raw,WA,140,134.54,34,,,,,345.00,,345.00,D
Jeff Coffey,1,Master 45-49,M,Raw,WA,125,124.78,48,,,,,262.50,,262.50,D
Sam Pecktol,1,Master 60-64,M,Raw,OR,140+,155.04,60,,,,,280.00,,280.00,D
Robert Heriford,1,Master 70-74,M,Raw,WA,100,90.81,70,,,,,150.00,,150.00,D
Sheila Southwood,1,Master 45-49,F,Single-ply,WA,67.5,66.00,49,,,,,145.00,,145.00,D
Mike Burns,1,Open,M,Single-ply,WA,110,104.36,39,,,,,272.50,,272.50,D
Mike Burns,1,Sub Master 35-39,M,Single-ply,WA,110,104.36,39,,,,,272.50,,272.50,D
