Division,WeightClassKg,Place,Name,Team,BodyweightKg,Best3SquatKg,Best3BenchKg,Best3DeadliftKg,TotalKg,Equipment,Event,Sex
Boys,52,1,Jason Ayers,Lampasas,51.57,142.88,79.38,170.1,392.36,Single-ply,SBD,M
Boys,52,2,Devin Bandow,Lago Vista,51.35,127.01,72.57,117.93,317.51,Single-ply,SBD,M
Boys,52,3,Preston Fox,Lampasas,48.17,102.06,61.23,106.59,269.89,Single-ply,SBD,M
Boys,52,4,Payton Melchor,Liberty Hill,47.31,102.06,47.63,102.06,251.74,Single-ply,SBD,M
Boys,56,1,Kip Ross,Lago Vista,55.52,122.47,74.84,142.88,340.19,Single-ply,SBD,M
Boys,56,2,Jake Burkhalter,Burnet,54.61,113.4,52.16,136.08,301.64,Single-ply,SBD,M
Boys,56,3,Raymond Cimino,Lampasas,53.52,63.5,,,63.5,Single-ply,S,M
Boys,60,1,Dalton Dewveall,Llano,59.83,174.63,95.25,183.7,453.59,Single-ply,SBD,M
Boys,60,2,Anthony Montes,Lampasas,59.15,151.95,99.79,154.22,405.97,Single-ply,SBD,M
Boys,60,3,Dakota Cavozos,Lampasas,59.69,136.08,102.06,145.15,383.29,Single-ply,SBD,M
Boys,60,4,Marlwin Perez,Brownwood,56.25,149.69,79.38,149.69,378.75,Single-ply,SBD,M
Boys,60,5,Cotton Woodum,Burnet,59.83,136.08,74.84,163.29,374.21,Single-ply,SBD,M
Boys,60,6,Quint Pincelli,Llano,59.83,136.08,77.11,151.95,365.14,Single-ply,SBD,M
Boys,60,7,Dakota Willis,Brownwood,59.65,142.88,70.31,90.72,303.91,Single-ply,SBD,M
Boys,60,8,Cam Coffman,Gordon,58.33,104.33,70.31,104.33,278.96,Single-ply,SBD,M
Boys,60,9,John Madden,Lampasas,57.15,77.11,54.43,102.06,233.6,Single-ply,SBD,M
Boys,67.5,1,Sean Williams,Lampasas,65.95,208.65,106.59,183.7,498.95,Single-ply,SBD,M
Boys,67.5,2,Connor Reighly,Lago Vista,65.91,176.9,86.18,179.17,442.25,Single-ply,SBD,M
Boys,67.5,3,Brent Greenwood,Llano,65.95,179.17,102.06,158.76,439.98,Single-ply,SBD,M
Boys,67.5,4,Kasey Sisson,Bangs,66.95,149.69,92.99,165.56,408.23,Single-ply,SBD,M
Boys,67.5,5,Ethan Oakes,Lampasas,63.41,147.42,92.99,149.69,390.09,Single-ply,SBD,M
Boys,67.5,6,Hunter Phillips,Lago Vista,65.63,151.95,77.11,158.76,387.82,Single-ply,SBD,M
Boys,67.5,7,Collin McBurnett,Burnet,63.41,136.08,68.04,165.56,369.68,Single-ply,SBD,M
Boys,67.5,8,Eloy Castillo,Brownwood,66,129.27,77.11,147.42,353.8,Single-ply,SBD,M
Boys,67.5,9,Easton Simpson,Copperas Cove,66.77,129.27,70.31,142.88,342.46,Single-ply,SBD,M
Boys,67.5,10,Kevin Wylie,Lampasas,65.77,120.2,72.57,147.42,340.19,Single-ply,SBD,M
Boys,67.5,11,Payden Eason,Bangs,65.18,117.93,86.18,127.01,331.12,Single-ply,SBD,M
Boys,67.5,12,Brandon Savage,Gordon,66.68,120.2,74.84,111.13,306.17,Single-ply,SBD,M
Boys,67.5,13,Dalton Scafe,Bangs,63.32,90.72,54.43,117.93,263.08,Single-ply,SBD,M
Boys,67.5,14,Nick Isquido,Copperas Cove,62.01,92.99,45.36,111.13,249.48,Single-ply,SBD,M
Boys,67.5,15,Jacob Delafuente,Brady,64.05,136.08,,,136.08,Single-ply,S,M
Boys,67.5,16,Alex Mikeska,Lampasas,65.59,115.67,,,115.67,Single-ply,S,M
Boys,75,1,Christian Rodriquez,Llano,74.57,233.6,129.27,204.12,566.99,Single-ply,SBD,M
Boys,75,2,Moe Bryson,Lago Vista,74.8,165.56,83.91,197.31,446.79,Single-ply,SBD,M
Boys,75,3,Isiah McGriff,Copperas Cove,69.49,174.63,113.4,156.49,444.52,Single-ply,SBD,M
Boys,75,4,Stephen Gallardo,Burnet,72.62,163.29,86.18,183.7,433.18,Single-ply,SBD,M
Boys,75,5,Xavier Armenta,Brownwood,73.75,163.29,102.06,167.83,433.18,Single-ply,SBD,M
Boys,75,6,Nolan Keller,Llano,74.71,170.1,102.06,161.03,433.18,Single-ply,SBD,M
Boys,75,7,Evan Gravell,Bangs,69.81,142.88,113.4,158.76,415.04,Single-ply,SBD,M
Boys,75,8,Vincent Leon,Lampasas,74.3,151.95,70.31,174.63,396.89,Single-ply,SBD,M
Boys,75,9,Adrian Alejos,Copperas Cove,72.62,136.08,86.18,158.76,381.02,Single-ply,SBD,M
Boys,75,10,Clayton Bertrand,Brownwood,68.17,147.42,79.38,147.42,374.21,Single-ply,SBD,M
Boys,75,11,Ethan Morsch,Lampasas,68.27,142.88,77.11,136.08,356.07,Single-ply,SBD,M
Boys,75,12,James Garrison,Marble Falls,69.81,136.08,68.04,151.95,356.07,Single-ply,SBD,M
Boys,75,13,Zach Parrish,Lampasas,74.84,113.4,61.23,145.15,319.78,Single-ply,SBD,M
Boys,75,14,Kyle Stifflemiere,Copperas Cove,68.76,99.79,72.57,127.01,299.37,Single-ply,SBD,M
Boys,75,15,Nolan Childs,Lampasas,68.99,104.33,52.16,113.4,269.89,Single-ply,SBD,M
Boys,75,DQ,Joseph Dimmig,Lampasas,67.63,,,,,Single-ply,SBD,M
Boys,82.5,1,Chase Mackey,Gordon,82.1,235.87,113.4,238.14,587.4,Single-ply,SBD,M
Boys,82.5,2,Van Shamblin,Liberty Hill,77.47,238.14,122.47,199.58,560.19,Single-ply,SBD,M
Boys,82.5,3,Jace Hankins,Lampasas,81.78,204.12,127.01,226.8,557.92,Single-ply,SBD,M
Boys,82.5,4,Cody Carrow,Lago Vista,81.92,201.85,138.35,210.92,551.11,Single-ply,SBD,M
Boys,82.5,5,Ryan Hill,Lago Vista,75.11,213.19,129.27,188.24,530.7,Single-ply,SBD,M
Boys,82.5,6,Dylan Hines,Lago Vista,76.75,204.12,99.79,210.92,514.83,Single-ply,SBD,M
Boys,82.5,7,Mason Greenwood,Llano,75.16,192.78,122.47,197.31,512.56,Single-ply,SBD,M
Boys,82.5,8,Michael Nguyen,Lampasas,79.24,181.44,92.99,185.97,460.4,Single-ply,SBD,M
Boys,82.5,9,Imanol Martinez,Brady,80.2,181.44,97.52,163.29,442.25,Single-ply,SBD,M
Boys,82.5,10,Austin Sansing,Lampasas,82.1,163.29,102.06,167.83,433.18,Single-ply,SBD,M
Boys,82.5,11,Joe Torres,Brady,81.78,158.76,104.33,163.29,426.38,Single-ply,SBD,M
Boys,82.5,12,Gabe Torres,Marble Falls,77.07,158.76,104.33,161.03,424.11,Single-ply,SBD,M
Boys,82.5,13,Dakota Pratt,Burnet,79.33,156.49,92.99,165.56,415.04,Single-ply,SBD,M
Boys,82.5,14,Patrick Nash,Brownwood,75.66,158.76,97.52,142.88,399.16,Single-ply,SBD,M
Boys,82.5,15,Coleman Posey,Burnet,76.93,147.42,86.18,161.03,394.63,Single-ply,SBD,M
Boys,82.5,16,Kameron Ellenberger,Marble Falls,76.25,136.08,77.11,147.42,360.61,Single-ply,SBD,M
Boys,82.5,17,Hunter Lawrence,Bangs,80.92,136.08,72.57,142.88,351.53,Single-ply,SBD,M
Boys,82.5,18,Josh Petty,Llano,77.84,122.47,79.38,131.54,333.39,Single-ply,SBD,M
Boys,82.5,19,Aubrey Bucholz,Brady,77.93,165.56,,,165.56,Single-ply,S,M
Boys,82.5,DQ,Jack Procter,Lampasas,77.61,,,,,Single-ply,SBD,M
Boys,90,1,Blake Carr,Lago Vista,89.58,195.04,117.93,204.12,517.1,Single-ply,SBD,M
Boys,90,2,Andrew Becker,Liberty Hill,88.77,165.56,136.08,190.51,492.15,Single-ply,SBD,M
Boys,90,3,Kody Knowles,Liberty Hill,85.05,165.56,92.99,208.65,467.2,Single-ply,SBD,M
Boys,90,4,Rylan Hunter,Copperas Cove,89.18,181.44,111.13,174.63,467.2,Single-ply,SBD,M
Boys,90,5,Gavin Jefferson,Brownwood,84.5,176.9,97.52,185.97,460.4,Single-ply,SBD,M
Boys,90,6,Carson Benedict,Brownwood,88.72,170.1,104.33,176.9,451.32,Single-ply,SBD,M
Boys,90,7,Darren DiDinato,Lago Vista,89.81,161.03,99.79,161.03,421.84,Single-ply,SBD,M
Boys,90,8,Hayden Tunnell,Brownwood,82.87,147.42,88.45,158.76,394.63,Single-ply,SBD,M
Boys,100,1,Dakota Corbut,Liberty Hill,98.02,254.01,158.76,263.08,675.85,Single-ply,SBD,M
Boys,100,2,Weston Bauer,Brady,97.7,206.38,167.83,222.26,596.47,Single-ply,SBD,M
Boys,100,3,Preston Reeves,Burnet,96.16,226.8,124.74,215.46,566.99,Single-ply,SBD,M
Boys,100,4,Javier Hernandez,Brady,97.39,208.65,122.47,217.72,548.85,Single-ply,SBD,M
Boys,100,5,Noah Von Benzerath,Lampasas,98.52,199.58,127.01,217.72,544.31,Single-ply,SBD,M
Boys,100,6,John Winn,Marble Falls,98.29,190.51,129.27,197.31,517.1,Single-ply,SBD,M
Boys,100,7,Justin Wilson #4,Liberty Hill,95.3,183.7,120.2,197.31,501.22,Single-ply,SBD,M
Boys,100,8,Roger Craig,Burnet,96.98,172.37,117.93,185.97,476.27,Single-ply,SBD,M
Boys,100,9,Jordan Monroy,Llano,98.29,174.63,122.47,154.22,451.32,Single-ply,SBD,M
Boys,100,10,Frankie Gutierez,Burnet,98.52,174.63,90.72,185.97,451.32,Single-ply,SBD,M
Boys,100,11,Juan Jiminez,Copperas Cove,96.66,161.03,90.72,188.24,439.98,Single-ply,SBD,M
Boys,100,12,Jeremy Rodgers,Lampasas,93.94,140.61,77.11,181.44,399.16,Single-ply,SBD,M
Boys,100,13,Billy Gruben,Bangs,98.16,136.08,70.31,113.4,319.78,Single-ply,SBD,M
Boys,100,14,Cody Osburn,Lampasas,93.76,124.74,65.77,124.74,315.25,Single-ply,SBD,M
Boys,100,DQ,Colton Webb,Lampasas,93.8,,,,,Single-ply,SBD,M
Boys,110,1,Michael Els,Lago Vista,103.33,254.01,172.37,219.99,646.37,Single-ply,SBD,M
Boys,110,2,Dakoda Trull,Llano,106.41,249.48,122.47,217.72,589.67,Single-ply,SBD,M
Boys,110,3,Kyle Huppee,Liberty Hill,103.1,204.12,136.08,210.92,551.11,Single-ply,SBD,M
Boys,110,4,Eric Yescas,Lampasas,109.77,210.92,124.74,190.51,526.17,Single-ply,SBD,M
Boys,110,5,Jaxon Tucker,Brady,105.19,183.7,111.13,204.12,498.95,Single-ply,SBD,M
Boys,110,6,Chris Rangel,Brownwood,108.45,213.19,97.52,188.24,498.95,Single-ply,SBD,M
Boys,110,7,Luke Williams,Llano,107.64,154.22,99.79,154.22,408.23,Single-ply,SBD,M
Boys,110,8,Ernesto Castaneda,Marble Falls,100.06,122.47,90.72,136.08,349.27,Single-ply,SBD,M
Boys,110,9,Charles Cloughly,Liberty Hill,107.32,240.4,,,240.4,Single-ply,S,M
Boys,110,10,Michael Rodriguez,Burnet,102.47,163.29,,,163.29,Single-ply,S,M
Boys,125,1,Justin Montgomery,Liberty Hill,116.8,210.92,115.67,192.78,519.36,Single-ply,SBD,M
Boys,125,2,Jacob Scott,Burnet,116.26,201.85,113.4,190.51,505.76,Single-ply,SBD,M
Boys,125,3,Austin Duenas,Copperas Cove,121.43,183.7,99.79,204.12,487.61,Single-ply,SBD,M
Boys,125,4,Johnathon Bocanegra,Copperas Cove,118.12,163.29,115.67,142.88,421.84,Single-ply,SBD,M
Boys,125,5,Garrett Anderson,Lampasas,110.63,142.88,70.31,122.47,335.66,Single-ply,SBD,M
Boys,125,6,Grant Deltz,Liberty Hill,119.43,199.58,,,199.58,Single-ply,S,M
Boys,125,7,Aaron Hewitt,Lampasas,112.85,102.06,61.23,,163.29,Single-ply,SB,M
Boys,125+,1,Kelton Parson,Bangs,143.52,235.87,151.95,195.04,582.87,Single-ply,SBD,M
Boys,125+,2,Chris Nix,Lampasas,132,208.65,136.08,235.87,580.6,Single-ply,SBD,M
Boys,125+,3,Colton Center,Llano,136.53,213.19,129.27,213.19,555.65,Single-ply,SBD,M
Boys,125+,4,Wesley Moyar,Marble Falls,128.77,167.83,117.93,185.97,471.74,Single-ply,SBD,M
Boys,125+,5,Jared Tippie,Liberty Hill,125.46,181.44,88.45,188.24,458.13,Single-ply,SBD,M
Boys,125+,6,Tyler Johnson,Lampasas,125.1,170.1,68.04,170.1,408.23,Single-ply,SBD,M
Boys,125+,7,Aaron Kohutek,Marble Falls,125.01,172.37,111.13,,283.5,Single-ply,SB,M
