Name,CyrillicName,Sex,BodyweightKg,Bench1Kg,Bench2Kg,Bench3Kg,Best3BenchKg,Bench4Kg,TotalKg,WeightClassKg,Event,Equipment,Tested,Squat1Kg,Squat2Kg,Squat3Kg,Best3SquatKg,Squat4Kg,Deadlift1Kg,Deadlift2Kg,Deadlift3Kg,Best3DeadliftKg,Deadlift4Kg,Division,BirthDay,Place
Svetlana Kumuts,Светлана Кумуц,F,50.6,-77.5,80,82.5,82.5,85,82.5,52,B,Raw,Yes,,,,,,,,,,,Amateur Teen 18-19,1995-02-01,1
Ekaterina Chub,Екатерина Чуб,F,51.6,45,50,52.5,52.5,,52.5,52,B,Raw,Yes,,,,,,,,,,,Amateur Juniors,1993-10-05,1
Natalya Ber,Наталья Бер,F,50.4,72.5,75,77.5,77.5,,77.5,52,B,Raw,Yes,,,,,,,,,,,Amateur Open,1981-06-02,1
Anastasiya Khramtsova,Анастасия Храмцова,F,55.2,40,45,47.5,47.5,,47.5,56,B,Raw,Yes,,,,,,,,,,,Amateur Teen 16-17,1996-06-16,1
Vera Mikheeva,Вера Михеева,F,52.3,40,-45,-50,40,,40,56,B,Raw,Yes,,,,,,,,,,,Amateur Open,1980-09-15,1
Olga Dolinskaya,Ольга Долинская,F,66,65,67.5,70,70,,70,67.5,B,Raw,Yes,,,,,,,,,,,Amateur Open,1981-03-11,1
Vladislav Mikheev,Владислав Михеев,M,50.3,45,50,-55,50,,50,52,B,Raw,Yes,,,,,,,,,,,Amateur Teen 13-15,1999-11-13,1
Konstantin Churakov,Константин Чураков,M,52,30,35,40,40,,40,52,B,Raw,Yes,,,,,,,,,,,Amateur Teen 13-15,2003-09-26,2
Elena Kushkova,Елена Кушкова,F,51.5,62.5,65,-67.5,65,,65,52,B,Raw,Yes,,,,,,,,,,,Amateur Masters 45-49,1967-03-12,1
Maksim Akhiyarov,Максим Ахияров,M,52.3,65,67.5,-70,67.5,,67.5,56,B,Raw,Yes,,,,,,,,,,,Amateur Teen 13-15,1998-02-17,1
Rashit Nasyrov,Рашит Насыров,M,56,85,-90,-90,85,,85,56,B,Raw,Yes,,,,,,,,,,,Amateur Masters 40-44,1969-02-16,1
Konstantin Demidenko,Константин Демиденко,M,59.3,80,-85,85,85,,85,60,B,Raw,Yes,,,,,,,,,,,Amateur Teen 16-17,1996-03-06,1
Artyom Tyulenyov,Артём Тюленёв,M,65,75,82.5,-95,82.5,,82.5,67.5,B,Raw,Yes,,,,,,,,,,,Amateur Teen 13-15,1997-12-23,1
Ivan Kostarev,Иван Костарев,M,66.3,90,95,102.5,102.5,,102.5,67.5,B,Raw,Yes,,,,,,,,,,,Amateur Teen 16-17,1997-08-02,1
Maksim Lapushkin,Максим Лапушкин,M,62.7,77.5,82.5,-87.5,82.5,,82.5,67.5,B,Raw,Yes,,,,,,,,,,,Amateur Teen 16-17,1997-03-31,2
Elnar Gaysin,Эльнар Гайсин,M,64.5,72.5,77.5,82.5,82.5,,82.5,67.5,B,Raw,Yes,,,,,,,,,,,Amateur Teen 16-17,1996-09-12,3
Dmitriy Veprev,Дмитрий Вепрев,M,67.4,-102.5,-105,-107.5,,,,67.5,B,Raw,Yes,,,,,,,,,,,Amateur Teen 16-17,1996-11-17,DQ
Kim Rakhimyanov,Ким Рахимьянов,M,65.8,85,90,-92.5,90,,90,67.5,B,Raw,Yes,,,,,,,,,,,Amateur Teen 18-19,1995-10-05,1
Vladislav Zamuruev,Владислав Замуруев,M,65.8,90,-97.5,-97.5,90,,90,67.5,B,Raw,Yes,,,,,,,,,,,Amateur Teen 18-19,1994-09-17,2
Aleksey Maklakov,Алексей Маклаков,M,65.2,142.5,-150,150,150,,150,67.5,B,Raw,Yes,,,,,,,,,,,Amateur Juniors,1992-01-12,1
Aleksandr Gorkun,Александр Горкун,M,65.6,115,-120,120,120,,120,67.5,B,Raw,Yes,,,,,,,,,,,Amateur Juniors,1992-07-04,2
Egor Isakov,Егор Исаков,M,65.2,-77.5,-80,82.5,82.5,,82.5,67.5,B,Raw,Yes,,,,,,,,,,,Amateur Juniors,1992-06-17,3
Sergey Zagray,Сергей Заграй,M,67.5,135,142.5,-145,142.5,,142.5,67.5,B,Raw,Yes,,,,,,,,,,,Amateur Open,1985-08-15,1
Aleksey Shakaev,Алексей Шакаев,M,66.4,100,-107.5,-107.5,100,,100,67.5,B,Raw,Yes,,,,,,,,,,,Amateur Open,1985-05-25,2
Garifulla Giniyatullin,Гарифулла Гиниятуллин,M,64.2,-60,60,62.5,62.5,,62.5,67.5,B,Raw,Yes,,,,,,,,,,,Amateur Masters,1932-12-15,1
Yaroslav Yazovskikh,Ярослав Язовских,M,72.5,130,140,150,150,,150,75,B,Raw,Yes,,,,,,,,,,,Amateur Teen 16-17,1997-01-01,1
Ilya Podshivalov,Илья Подшивалов,M,74.3,-102.5,102.5,105,105,,105,75,B,Raw,Yes,,,,,,,,,,,Amateur Teen 18-19,1994-03-31,1
Ilya Nabiev,Илья Набиев,M,74,70,75,-82.5,75,,75,75,B,Raw,Yes,,,,,,,,,,,Amateur Teen 18-19,1995-05-12,2
Yaroslav Yasas,Ярослав Ясас,M,72.9,127.5,-132.5,-132.5,127.5,,127.5,75,B,Raw,Yes,,,,,,,,,,,Amateur Juniors,1992-06-19,1
Artem Kryukov,Артем Крюков,M,75,110,-117.5,-117.5,110,,110,75,B,Raw,Yes,,,,,,,,,,,Amateur Juniors,1991-06-29,2
Renat Khabibullin,Ренат Хабибуллин,M,71.5,135,140,-145,140,,140,75,B,Raw,Yes,,,,,,,,,,,Amateur Open,1984-06-07,1
Vitaliy Obukhov,Виталий Обухов,M,73.8,125,135,-140,135,,135,75,B,Raw,Yes,,,,,,,,,,,Amateur Open,1980-06-18,2
Aleksandr Avilkin,Александр Авилкин,M,74.2,120,-125,125,125,,125,75,B,Raw,Yes,,,,,,,,,,,Amateur Open,1982-01-29,3
Nikolay Malakhov,Николай Малахов,M,75,-112.5,117.5,120,120,,120,75,B,Raw,Yes,,,,,,,,,,,Amateur Open,1986-08-07,4
Artur Shtele,Артур Штеле,M,70,112.5,117.5,-120,117.5,,117.5,75,B,Raw,Yes,,,,,,,,,,,Amateur Open,1985-11-11,5
Mikhail Fomichev,Михаил Фомичев,M,70.8,117.5,-125,-125,117.5,,117.5,75,B,Raw,Yes,,,,,,,,,,,Amateur Open,1989-07-29,6
Aleksey Khramtsov,Алексей Храмцов,M,73.9,100,107.5,-112.5,107.5,,107.5,75,B,Raw,Yes,,,,,,,,,,,Amateur Open,1985-02-07,7
Semen Shmelev,Семен Шмелев,M,72.2,90,-95,-95,90,,90,75,B,Raw,Yes,,,,,,,,,,,Amateur Open,1987-04-12,8
Vyacheslav Shatunov,Вячеслав Шатунов,M,69.9,-105,-105,-105,,,,75,B,Raw,Yes,,,,,,,,,,,Amateur Open,1981-04-30,DQ
Dmitriy Yaresko,Дмитрий Яресько,M,72.9,-95,-95,-95,,,,75,B,Raw,Yes,,,,,,,,,,,Amateur Open,1979-04-14,DQ
Denis Fadeev,Денис Фадеев,M,74.5,-112.5,-115,-115,,,,75,B,Raw,Yes,,,,,,,,,,,Amateur Open,1988-08-21,DQ
Nikolay Shulepov,Николай Шулепов,M,73.9,130,135,-140,135,,135,75,B,Raw,Yes,,,,,,,,,,,Amateur Masters 40-44,1973-05-23,1
Oleg Shchegolikhin,Олег Щеголихин,M,73.1,135,-140,-140,135,,135,75,B,Raw,Yes,,,,,,,,,,,Amateur Masters 45-49,1967-02-25,1
Oleg Davydov,Олег Давыдов,M,75,90,97.5,-100,97.5,,97.5,75,B,Raw,Yes,,,,,,,,,,,Amateur Masters 45-49,1967-03-15,2
Ivan Zyablikov,Иван Зябликов,M,74.8,100,105,110,110,,110,75,B,Raw,Yes,,,,,,,,,,,Amateur Masters 65-69,1948-08-21,1
Nikita Zazulin,Никита Зазулин,M,78.3,100,105,110,110,,110,82.5,B,Raw,Yes,,,,,,,,,,,Amateur Teen 13-15,1998-03-18,1
Prokhor Poplygin,Прохор Поплыгин,M,81.5,-125,132.5,137.5,137.5,,137.5,82.5,B,Raw,Yes,,,,,,,,,,,Amateur Teen 16-17,1997-01-23,1
Evgeniy Melnikov,Евгений Мельников,M,81,100,107.5,-112.5,107.5,,107.5,82.5,B,Raw,Yes,,,,,,,,,,,Amateur Teen 16-17,1996-05-02,2
Sergey Shershnev,Сергей Шершнев,M,79.1,85,90,-92.5,90,,90,82.5,B,Raw,Yes,,,,,,,,,,,Amateur Teen 16-17,1997-05-02,3
Kristian Lebedev,Кристиан Лебедев,M,81.6,117.5,122.5,-127.5,122.5,,122.5,82.5,B,Raw,Yes,,,,,,,,,,,Amateur Teen 18-19,1995-06-02,1
Nikolay Syskov,Николай Сысков,M,80,130,-135,135,135,,135,82.5,B,Raw,Yes,,,,,,,,,,,Amateur Juniors,1992-11-30,1
Ilya Makarov,Илья Макаров,M,81.1,155,-162.5,162.5,162.5,,162.5,82.5,B,Raw,Yes,,,,,,,,,,,Amateur Open,1987-05-21,1
Aleksandr Gorokhovskiy,Александр Гороховский,M,81.7,140,145,152.5,152.5,,152.5,82.5,B,Raw,Yes,,,,,,,,,,,Amateur Open,1982-03-27,2
Vasiliy Nikolaev,Василий Николаев,M,77.5,140,150,,150,,150,82.5,B,Raw,Yes,,,,,,,,,,,Amateur Open,1987-11-15,3
Pavel Kroksov,Павел Кроксов,M,81.6,-137.5,-145,145,145,,145,82.5,B,Raw,Yes,,,,,,,,,,,Amateur Open,1987-02-11,4
Vitaliy Eremeev,Виталий Еремеев,M,79.6,120,127.5,135,135,,135,82.5,B,Raw,Yes,,,,,,,,,,,Amateur Open,1987-10-03,5
Dmitriy Apter,Дмитрий Аптер,M,81.9,-130,-135,135,135,,135,82.5,B,Raw,Yes,,,,,,,,,,,Amateur Open,1975-11-14,6
Roman Lyushkin,Роман Люшкин,M,82,130,135,-140,135,,135,82.5,B,Raw,Yes,,,,,,,,,,,Amateur Open,1978-11-12,7
Aleksandr Bludarev,Александр Блударев,M,80.2,-110,-110,-110,,,,82.5,B,Raw,Yes,,,,,,,,,,,Amateur Open,1987-05-28,DQ
Dmitriy Churkin,Дмитрий Чуркин,M,80.9,-135,-140,-145,,,,82.5,B,Raw,Yes,,,,,,,,,,,Amateur Open,1988-09-18,DQ
Aleksandr Gutsevich,Александр Гуцевич,M,82.1,-137.5,-145,-145,,,,82.5,B,Raw,Yes,,,,,,,,,,,Amateur Masters 45-49,1966-09-23,DQ
Igor Volodin,Игорь Володин,M,80.3,137.5,-145,-145,137.5,,137.5,82.5,B,Raw,Yes,,,,,,,,,,,Amateur Masters 50-54,1962-12-28,1
Igor Novikov,Игорь Новиков,M,81.55,87.5,95,-102.5,95,,95,82.5,B,Raw,Yes,,,,,,,,,,,Amateur Masters 50-54,1962-09-22,2
Eldar Tsoriev,Эльдар Цориев,M,81.7,125,132.5,,132.5,,132.5,82.5,B,Raw,Yes,,,,,,,,,,,Amateur Masters 65-69,1946-02-17,1
Vladislav Loginov,Владислав Логинов,M,87.1,145,152.5,155,155,,155,90,B,Raw,Yes,,,,,,,,,,,Amateur Teen 18-19,1994-11-24,1
Maksim Belchenko,Максим Бельченко,M,86.5,105,-115,-115,105,,105,90,B,Raw,Yes,,,,,,,,,,,Amateur Juniors,1993-11-20,1
Andrey Galayda,Андрей Галайда,M,89.6,190,,,190,,190,90,B,Raw,Yes,,,,,,,,,,,Amateur Open,1972-02-07,1
Vitaliy Aksenov,Виталий Аксенов,M,86.9,145,152.5,-155,152.5,,152.5,90,B,Raw,Yes,,,,,,,,,,,Amateur Open,1981-05-16,2
Nikita Khramov,Никита Храмов,M,88.8,-152.5,152.5,-157.5,152.5,,152.5,90,B,Raw,Yes,,,,,,,,,,,Amateur Open,1981-07-14,3
Aleksey Shikin,Алексей Шикин,M,89,147.5,152.5,-155,152.5,,152.5,90,B,Raw,Yes,,,,,,,,,,,Amateur Open,1983-10-12,4
Aleksey Babkin,Алексей Бабкин,M,89.4,152.5,-160,-162.5,152.5,,152.5,90,B,Raw,Yes,,,,,,,,,,,Amateur Open,1981-12-05,5
Dmitriy Nikolaev,Дмитрий Николаев,M,87.6,140,147.5,-152.5,147.5,,147.5,90,B,Raw,Yes,,,,,,,,,,,Amateur Open,1982-04-05,6
Ruslan Khibatullin,Руслан Хибатуллин,M,88.5,-140,145,-152.5,145,,145,90,B,Raw,Yes,,,,,,,,,,,Amateur Open,1983-04-15,7
Andrey Raskovalov,Андрей Расковалов,M,88.8,145,-152.5,-152.5,145,,145,90,B,Raw,Yes,,,,,,,,,,,Amateur Open,1984-04-30,8
Konstantin Martyushev,Константин Мартюшев,M,89.1,120,125,-132.5,125,,125,90,B,Raw,Yes,,,,,,,,,,,Amateur Open,1987-07-15,9
Andrey Shivtsov,Андрей Шивцов,M,87.4,-115,-120,120,120,,120,90,B,Raw,Yes,,,,,,,,,,,Amateur Open,1989-02-23,10
Aleksandr Yarin,Александр Ярин,M,88.2,100,117.5,-120,117.5,,117.5,90,B,Raw,Yes,,,,,,,,,,,Amateur Open,1960-08-12,11
Ilya Galkin,Илья Галкин,M,88.2,-147.5,-152.5,-152.5,,,,90,B,Raw,Yes,,,,,,,,,,,Amateur Open,1995-04-07,DQ
Aleksandr Kozhevin,Александр Кожевин,M,88.9,-167.5,-175,-175,,,,90,B,Raw,Yes,,,,,,,,,,,Amateur Open,1979-05-18,DQ
Andrey Kadochnikov,Андрей Кадочников,M,89.8,-145,-152.5,-152.5,,,,90,B,Raw,Yes,,,,,,,,,,,Amateur Open,1988-02-21,DQ
Andrey Galayda,Андрей Галайда,M,89.6,190,,,190,,190,90,B,Raw,Yes,,,,,,,,,,,Amateur Masters 40-44,1972-02-07,1
Aleksandr Oykher,Александр Ойхер,M,89,120,-125,-127.5,120,,120,90,B,Raw,Yes,,,,,,,,,,,Amateur Masters 40-44,1973-01-02,2
Andrey Gerasimenko,Андрей Герасименко,M,86.8,132.5,-145,145,145,,145,90,B,Raw,Yes,,,,,,,,,,,Amateur Masters 45-49,1967-11-06,1
Rafael Aptukov,Рафаэль Аптуков,M,89.9,-165,-165,,,,,90,B,Raw,Yes,,,,,,,,,,,Amateur Masters 45-49,1968-08-03,DQ
Andrey Noritsin,Андрей Норицин,M,89.7,155,160,-165,160,,160,90,B,Raw,Yes,,,,,,,,,,,Amateur Masters 50-54,1963-07-25,1
Nikolay Shulgin,Николай Шульгин,M,86.7,92.5,97.5,-107.5,97.5,,97.5,90,B,Raw,Yes,,,,,,,,,,,Amateur Masters 50-54,1959-05-10,2
Anatoliy Kudlya,Анатолий Кудля,M,83.7,105,115,-120,115,,115,90,B,Raw,Yes,,,,,,,,,,,Amateur Masters 65-69,1948-02-07,1
Artyom Cherepanov,Артём Черепанов,M,97.8,120,125,130,130,,130,100,B,Raw,Yes,,,,,,,,,,,Amateur Teen 16-17,1996-08-27,1
Kirill Kazantsev,Кирилл Казанцев,M,99.9,120,125,-127.5,125,,125,100,B,Raw,Yes,,,,,,,,,,,Amateur Teen 16-17,1997-05-28,2
Ivan Telepov,Иван Телепов,M,98.3,-75,85,-90,85,,85,100,B,Raw,Yes,,,,,,,,,,,Amateur Teen 16-17,1997-06-11,3
Kirill Nuzhin,Кирилл Нужин,M,96.8,145,155,-162.5,155,,155,100,B,Raw,Yes,,,,,,,,,,,Amateur Juniors,1990-08-27,1
Dmitriy Kuklin,Дмитрий Куклин,M,97.2,-135,-135,-135,,,,100,B,Raw,Yes,,,,,,,,,,,Amateur Juniors,1990-11-08,DQ
Andrey Tagankin,Андрей Таганкин,M,96.4,165,-170,-170,165,,165,100,B,Raw,Yes,,,,,,,,,,,Amateur Open,1984-10-03,1
Andrey Novitskiy,Андрей Новицкий,M,97.6,152.5,157.5,-162.5,157.5,,157.5,100,B,Raw,Yes,,,,,,,,,,,Amateur Open,1975-11-01,2
Sergey Kulpin,Сергей Кульпин,M,98.7,152.5,-162.5,-162.5,152.5,,152.5,100,B,Raw,Yes,,,,,,,,,,,Amateur Open,1973-12-09,3
Aleksey Mikov,Алексей Миков,M,91.1,150,-155,,150,,150,100,B,Raw,Yes,,,,,,,,,,,Amateur Open,1978-04-26,4
Aleksey Gribanov,Алексей Грибанов,M,90.4,-122.5,,,,,,100,B,Raw,Yes,,,,,,,,,,,Amateur Open,1975-08-02,DQ
Ivan Dobrynin,Иван Добрынин,M,99.6,-162.5,,,,,,100,B,Raw,Yes,,,,,,,,,,,Amateur Open,1982-05-22,DQ
Sergey Milovidov,Сергей Миловидов,M,99.1,150,165,-175,165,,165,100,B,Raw,Yes,,,,,,,,,,,Amateur Masters 40-44,1973-05-09,1
Ivan Kazantsev,Иван Казанцев,M,94.4,-150,155,162.5,162.5,,162.5,100,B,Raw,Yes,,,,,,,,,,,Amateur Masters 45-49,1967-09-29,1
Vladimir Pleshakov,Владимир Плешаков,M,100,147.5,-152.5,152.5,152.5,,152.5,100,B,Raw,Yes,,,,,,,,,,,Amateur Masters 45-49,1965-09-03,2
Anatoliy Gorelov,Анатолий Горелов,M,96.2,137.5,-142.5,-142.5,137.5,,137.5,100,B,Raw,Yes,,,,,,,,,,,Amateur Masters 50-54,1962-01-24,1
Petr Komarov,Петр Комаров,M,95.9,150,-160,160,160,,160,100,B,Raw,Yes,,,,,,,,,,,Amateur Masters 55-59,1958-10-06,1
Aleksey Bannov,Алексей Баннов,M,108.5,180,-195,195,195,,195,110,B,Raw,Yes,,,,,,,,,,,Amateur Juniors,1990-06-07,1
Vitaliy Tikhonov,Виталий Тихонов,M,107.6,175,180,182.5,182.5,,182.5,110,B,Raw,Yes,,,,,,,,,,,Amateur Open,1988-10-15,1
Aleksandr Belyaev,Александр Беляев,M,105.1,167.5,180,-182.5,180,,180,110,B,Raw,Yes,,,,,,,,,,,Amateur Open,1972-09-29,2
Eduard Churakov,Эдуард Чураков,M,109.7,-180,-180,180,180,,180,110,B,Raw,Yes,,,,,,,,,,,Amateur Open,1977-02-09,3
Dmitriy Karelin,Дмитрий Карелин,M,102.8,170,177.5,-180,177.5,,177.5,110,B,Raw,Yes,,,,,,,,,,,Amateur Open,1968-09-27,4
Aleksandr Kalinin,Александр Калинин,M,108.6,157.5,-165,-165,157.5,,157.5,110,B,Raw,Yes,,,,,,,,,,,Amateur Open,1983-02-16,5
Vitaliy Pushkarev,Виталий Пушкарев,M,105.7,155,-162.5,-162.5,155,,155,110,B,Raw,Yes,,,,,,,,,,,Amateur Open,1983-05-23,6
Aleksandr Shanin,Александр Шанин,M,108.4,130,137.5,147.5,147.5,,147.5,110,B,Raw,Yes,,,,,,,,,,,Amateur Open,1978-09-26,7
Aleksandr Belyaev,Александр Беляев,M,105.1,167.5,180,-182.5,180,,180,110,B,Raw,Yes,,,,,,,,,,,Amateur Masters 40-44,1972-09-29,1
Dmitriy Karelin,Дмитрий Карелин,M,102.8,170,177.5,-180,177.5,,177.5,110,B,Raw,Yes,,,,,,,,,,,Amateur Masters 45-49,1968-09-27,1
Dmitriy Pyzhyanov,Дмитрий Пыжьянов,M,111.9,120,125,127.5,127.5,,127.5,125,B,Raw,Yes,,,,,,,,,,,Amateur Teen 18-19,1994-05-04,1
Vladimir Polivanov,Владимир Поливанов,M,120.6,162.5,170,-175,170,,170,125,B,Raw,Yes,,,,,,,,,,,Amateur Open,1963-01-20,1
Aleksey Brednev,Алексей Бреднев,M,122,160,165,-167.5,165,,165,125,B,Raw,Yes,,,,,,,,,,,Amateur Masters 40-44,1969-05-01,1
Vladimir Polivanov,Владимир Поливанов,M,120.6,162.5,170,-175,170,,170,125,B,Raw,Yes,,,,,,,,,,,Amateur Masters 50-54,1963-01-20,1
Anatoliy Lukyanov,Анатолий Лукьянов,M,115.2,130,-140,,130,,130,125,B,Raw,Yes,,,,,,,,,,,Amateur Masters 60-64,1949-11-21,1
Sergey Khudyakov,Сергей Худяков,M,131.5,220,230,-242.5,230,,230,140,B,Raw,Yes,,,,,,,,,,,Amateur Open,1975-09-11,1
Andrey Larin,Андрей Ларин,M,138.1,190,200,-210,200,,200,140,B,Raw,Yes,,,,,,,,,,,Amateur Open,1986-01-11,2
Sergey Lazarev,Сергей Лазарев,M,144,117.5,125,-132.5,125,,125,140+,B,Raw,Yes,,,,,,,,,,,Amateur Masters 50-54,1960-04-04,1
Olga Kruzhkova,Ольга Кружкова,F,55.7,87.5,92.5,95,95,,95,56,B,Single-ply,Yes,,,,,,,,,,,Amateur Open,1986-08-14,1
Evgeniy Morozov,Евгений Морозов,M,57.7,90,97.5,-100,97.5,,97.5,60,B,Single-ply,Yes,,,,,,,,,,,Amateur Teen 16-17,1997-10-10,1
Ayrat Sufiyanov,Айрат Суфиянов,M,64.4,-187.5,187.5,195,195,-202.5,195,67.5,B,Single-ply,Yes,,,,,,,,,,,Amateur Open,1984-03-02,1
Sergey Lysyakov,Сергей Лысяков,M,67.1,145,-152.5,-152.5,145,,145,67.5,B,Single-ply,Yes,,,,,,,,,,,Amateur Open,1980-04-17,2
Oleg Mironov,Олег Миронов,M,63.3,140,150,160,160,,160,67.5,B,Single-ply,Yes,,,,,,,,,,,Amateur Masters 40-44,1970-10-28,1
Dmitriy Apter,Дмитрий Аптер,M,81.9,150,-162.5,-162.5,150,,150,82.5,B,Single-ply,Yes,,,,,,,,,,,Amateur Open,1975-11-14,1
Aleksandr Ermakov,Александр Ермаков,M,80.7,-140,-140,140,140,,140,82.5,B,Single-ply,Yes,,,,,,,,,,,Amateur Open,1988-04-05,2
Andrey Galayda,Андрей Галайда,M,89.6,220,-230,-230,220,,220,90,B,Single-ply,Yes,,,,,,,,,,,Amateur Open,1972-02-07,1
Marsel Khusainov,Марсель Хусаинов,M,88.6,-195,-200,200,200,,200,90,B,Single-ply,Yes,,,,,,,,,,,Amateur Open,1984-07-28,2
Andrey Galayda,Андрей Галайда,M,89.6,220,-230,-230,220,,220,90,B,Single-ply,Yes,,,,,,,,,,,Amateur Masters 40-44,1972-02-07,1
Dmimtriy Chertushkin,Дмимтрий Чертушкин,M,89.6,175,,,175,,175,90,B,Single-ply,Yes,,,,,,,,,,,Amateur Masters 45-49,1965-08-15,1
Nikita Khizyov,Никита Хизёв,M,96.2,-180,180,190,190,,190,100,B,Single-ply,Yes,,,,,,,,,,,Amateur Teen 18-19,1994-03-28,1
Kirill Fedoseev,Кирилл Федосеев,M,108.3,210,227.5,-232.5,227.5,,227.5,110,B,Single-ply,Yes,,,,,,,,,,,Amateur Juniors,1992-02-23,1
Aleksandr Portnoy,Александр Портной,M,102.8,205,-215,215,215,,215,110,B,Single-ply,Yes,,,,,,,,,,,Amateur Open,1987-12-13,1
Aleksey Gorbunov,Алексей Горбунов,M,136.2,-235,-235,-237.5,,,,140,B,Single-ply,Yes,,,,,,,,,,,Amateur Open,1979-09-07,DQ
Artush Karapetyan,Артуш Карапетян,M,87,170,180,-187.5,180,,180,90,B,Multi-ply,Yes,,,,,,,,,,,Amateur Juniors,1991-10-20,1
Rinad Nizamov,Ринад Низамов,M,90,-217.5,217.5,225,225,,225,90,B,Multi-ply,Yes,,,,,,,,,,,Amateur Masters 40-44,1973-09-18,1
Valentina Shadurskaya,Валентина Шадурская,F,51.9,-35,35,40,40,,175,52,SBD,Raw,Yes,-60,60,-70,60,,70,72.5,75,75,,Amateur Open,1987-11-20,1
Renata Bakieva,Рената Бакиева,F,55.6,-45,45,-50,45,,225,56,SBD,Raw,Yes,75,80,-87.5,80,,85,95,100,100,,Amateur Open,1988-07-03,1
Lyubov Klevakina,Любовь Клевакина,F,57.5,32.5,35,-40,35,,165,60,SBD,Raw,Yes,-50,-55,55,55,,65,70,75,75,,Amateur Open,1982-03-24,1
Olga Dolinskaya,Ольга Долинская,F,66,65,70,-72.5,70,,332.5,67.5,SBD,Raw,Yes,110,115,120,120,,125,135,142.5,142.5,,Amateur Open,1981-03-11,1
Svetlana Kochetkova,Светлана Кочеткова,F,67.1,52.5,-57.5,-57.5,52.5,,265,67.5,SBD,Raw,Yes,95,-102.5,-102.5,95,,105,-117.5,117.5,117.5,,Amateur Open,1989-01-15,2
Ekaterina Adiyak,Екатерина Адияк,F,80.8,55,60,-62.5,60,,290,82.5,SBD,Raw,Yes,100,110,115,115,,105,115,-125,115,,Amateur Teen 16-17,1997-07-30,1
Vladislav Kulnev,Владислав Кульнев,M,49.1,-55,55,60,60,,270,52,SBD,Raw,Yes,95,102.5,105,105,,95,102.5,105,105,,Amateur Teen 13-15,1999-06-05,1
Sergey Konovalov,Сергей Коновалов,M,51.4,-85,-85,-85,,,,52,SBD,Raw,Yes,100,-110,110,110,,,,,,,Amateur Teen 16-17,1997-07-03,DQ
Dmitriy Baleev,Дмитрий Балеев,M,59.4,90,-95,-95,90,,355,60,SBD,Raw,Yes,100,115,125,125,,120,-140,140,140,,Amateur Juniors,1992-07-06,1
Vladimir Motkov,Владимир Мотков,M,64.6,87.5,-92.5,92.5,92.5,,387.5,67.5,SBD,Raw,Yes,-125,-130,130,130,,145,155,165,165,,Amateur Teen 16-17,1997-10-14,1
Artem Zelenin,Артем Зеленин,M,65,110,-115,-115,110,,370,67.5,SBD,Raw,Yes,110,115,-120,115,,120,135,145,145,,Amateur Teen 16-17,1996-09-08,2
Aleksandr Pyankov,Александр Пьянков,M,65.5,90,97.5,-100,97.5,,392.5,67.5,SBD,Raw,Yes,110,125,130,130,,145,155,165,165,,Amateur Open,1983-10-27,1
Vadim Alekseenko,Вадим Алексеенко,M,67.8,90,95,-100,95,,400,75,SBD,Raw,Yes,120,130,140,140,,140,155,165,165,,Amateur Teen 18-19,1995-04-06,1
Dmitriy Korshunov,Дмитрий Коршунов,M,70.4,85,95,-100,95,,370,75,SBD,Raw,Yes,115,120,130,130,,120,140,145,145,,Amateur Open,1986-09-27,1
Konstantin Sidenkov,Константин Сиденков,M,72.5,-110,110,-117.5,110,,405,75,SBD,Raw,Yes,120,-130,130,130,,155,165,-175,165,,Amateur Masters 45-49,1967-10-30,1
Adil Israfilov,Адил Исрафилов,M,78.8,132.5,142.5,-147.5,142.5,,557.5,82.5,SBD,Raw,Yes,202.5,-212.5,-212.5,202.5,,202.5,212.5,-222.5,212.5,,Amateur Teen 13-15,1997-12-17,1
Konstantin Sgibnev,Константин Сгибнев,M,79.8,110,115,-117.5,115,,485,82.5,SBD,Raw,Yes,160,170,175,175,,180,190,195,195,,Amateur Teen 13-15,1997-12-30,2
Vladislav Raskoshinskiy,Владислав Раскошинский,M,81.2,100,,,100,,485,82.5,SBD,Raw,Yes,170,180,190,190,,180,195,-202.5,195,,Amateur Teen 16-17,1996-03-23,1
Sergey Tatarinov,Сергей Татаринов,M,79.7,130,140,142.5,142.5,,537.5,82.5,SBD,Raw,Yes,180,-185,185,185,,200,205,210,210,,Amateur Open,1983-12-24,1
Oleg Pushenkov,Олег Пушенков,M,79,137.5,-145,145,145,,495,82.5,SBD,Raw,Yes,160,170,-180,170,,150,165,180,180,,Amateur Open,1980-08-24,2
Vyacheslav Gorbunov,Вячеслав Горбунов,M,79.1,100,110,115,115,,435,82.5,SBD,Raw,Yes,110,120,130,130,,180,190,-200,190,,Amateur Open,1986-11-18,3
Dmitriy Zasypkin,Дмитрий Засыпкин,M,77.5,95,97.5,-102.5,97.5,,417.5,82.5,SBD,Raw,Yes,120,130,140,140,,160,170,180,180,,Amateur Open,1985-12-17,4
Vladislav Gritskov,Владислав Грицков,M,78.9,,,,,,,82.5,SBD,Raw,Yes,-140,-140,-140,,,,,,,,Amateur Open,1989-01-19,DQ
Aleksandr Terezov,Александр Терезов,M,80.7,105,112.5,120,120,,455,82.5,SBD,Raw,Yes,140,150,,150,,165,175,185,185,,Amateur Masters 45-49,1967-04-09,1
Ruslan Olekhov,Руслан Олехов,M,88.3,150,160,170,170,,665,90,SBD,Raw,Yes,230,240,245,245,,230,250,-260,250,,Amateur Teen 18-19,1994-03-22,1
Igor Zuev,Игорь Зуев,M,85,130,-140,-140,130,,580,90,SBD,Raw,Yes,180,200,-205,200,,230,240,250,250,,Amateur Juniors,1991-04-17,1
Aleksey Matveev,Алексей Матвеев,M,89.2,145,150,-152.5,150,,622.5,90,SBD,Raw,Yes,-200,200,212.5,212.5,,250,260,-267.5,260,,Amateur Open,1989-08-21,1
Semen Lazarenko,Семен Лазаренко,M,89.6,-150,-150,150,150,,600,90,SBD,Raw,Yes,200,215,220,220,,210,-230,230,230,,Amateur Open,1988-03-02,2
Ivan Khorev,Иван Хорев,M,85.7,,,,,,,90,SBD,Raw,Yes,-180,-180,-180,,,,,,,,Amateur Open,1983-12-18,DQ
Vyacheslav Myasnikov,Вячеслав Мясников,M,89.6,120,130,-135,130,,550,90,SBD,Raw,Yes,190,200,210,210,,200,210,-222.5,210,,Amateur Masters 40-44,1970-12-07,1
Aleksey Grach,Алексей Грач,M,88.4,115,120,-125,120,,525,90,SBD,Raw,Yes,180,-190,190,190,,200,-215,215,215,,Amateur Masters 50-54,1962-01-01,1
Pavel Servut,Павел Сервут,M,93.2,100,105,112.5,112.5,,485,100,SBD,Raw,Yes,160,165,172.5,172.5,,190,200,-210,200,,Amateur Teen 18-19,1994-09-17,1
Kirill Nuzhin,Кирилл Нужин,M,96.8,,,,,,,100,SBD,Raw,Yes,-175,-175,-175,,,,,,,,Amateur Juniors,1990-08-27,DQ
Aleksey Konakov,Алексей Конаков,M,92.7,90,100,-107.5,100,,470,100,SBD,Raw,Yes,-170,170,190,190,,180,-200,,180,,Amateur Open,1977-10-12,1
Aleksey Mikov,Алексей Миков,M,91.1,-155,-155,-155,,,,100,SBD,Raw,Yes,175,-185,-185,175,,,,,,,Amateur Open,1978-04-26,DQ
Ivan Chevardin,Иван Чевардин,M,96.7,150,-157.5,-157.5,150,,550,100,SBD,Raw,Yes,200,-210,-220,200,,190,-200,200,200,,Amateur Masters 55-59,1958-05-03,1
Ilya Bupychev,Илья Бупычев,M,108.5,115,-122.5,127.5,127.5,,487.5,110,SBD,Raw,Yes,165,-175,175,175,,175,185,-197.5,185,,Amateur Teen 16-17,1996-06-20,1
Yaroslav Skvortsov,Ярослав Скворцов,M,63.9,85,90,95,95,,450,67.5,SBD,Single-ply,Yes,170,180,-190,180,,160,170,175,175,,Amateur Teen 16-17,1995-12-22,1
Aleksandr Farvaev,Александр Фарваев,M,77.8,110,120,-130,120,,565,82.5,SBD,Single-ply,Yes,-220,220,-237.5,220,,215,-225,225,225,,Amateur Teen 16-17,1997-01-04,1
Ivan Demidenko,Иван Демиденко,M,90,175,185,,185,,610,90,SBD,Single-ply,Yes,190,205,210,210,,190,200,215,215,,Amateur Open,1976-12-20,1
Dmimtriy Chertushkin,Дмимтрий Чертушкин,M,89.6,170,177.5,185,185,,625,90,SBD,Single-ply,Yes,210,225,240,240,,200,-210,-217.5,200,,Amateur Masters 45-49,1965-08-15,1
Pavel Galayda,Павел Галайда,M,99.5,190,-200,,190,,710,100,SBD,Single-ply,Yes,240,260,,260,,250,260,,260,,Amateur Open,1968-06-03,1
Pavel Galayda,Павел Галайда,M,99.5,190,-200,,190,,710,100,SBD,Single-ply,Yes,240,260,,260,,250,260,,260,,Amateur Masters 45-49,1968-06-03,1
Lyubov Klevakina,Любовь Клевакина,F,57.5,,,,,,80,60,D,Raw,Yes,,,,,,70,75,80,80,,Amateur Open,1982-03-24,1
Svetlana Kochetkova,Светлана Кочеткова,F,67.1,,,,,,135,67.5,D,Raw,Yes,,,,,,-115,117.5,135,135,,Amateur Open,1989-01-15,1
Konstantin Demidenko,Константин Демиденко,M,59.3,,,,,,150,60,D,Raw,Yes,,,,,,130,140,150,150,,Amateur Teen 16-17,1996-03-06,1
Vladimir Motkov,Владимир Мотков,M,63.7,,,,,,165,67.5,D,Raw,Yes,,,,,,150,165,-170,165,,Amateur Teen 16-17,1997-10-14,1
Maksim Lapushkin,Максим Лапушкин,M,62.7,,,,,,132.5,67.5,D,Raw,Yes,,,,,,117.5,125,132.5,132.5,,Amateur Teen 16-17,1997-03-31,2
Sergey Saypushev,Сергей Сайпушев,M,67.4,,,,,,217.5,67.5,D,Raw,Yes,,,,,,217.5,-220,-220,217.5,,Amateur Open,1986-03-28,1
Sergey Volkov,Сергей Волков,M,67.2,,,,,,175,67.5,D,Raw,Yes,,,,,,-175,175,-190,175,,Amateur Open,1981-08-18,2
Aleksandr Kiryanov,Александр Кирьянов,M,73.7,,,,,,207.5,75,D,Raw,Yes,,,,,,-187.5,202.5,207.5,207.5,,Amateur Teen 16-17,1996-11-27,1
Dmitriy Stulov,Дмитрий Стулов,M,75,,,,,,220,75,D,Raw,Yes,,,,,,200,220,-232.5,220,,Amateur Open,1982-10-03,1
Yakov Rubtsov,Яков Рубцов,M,76.3,,,,,,220,82.5,D,Raw,Yes,,,,,,205,215,220,220,,Amateur Teen 16-17,1996-03-26,1
Evgeniy Melnikov,Евгений Мельников,M,81,,,,,,,82.5,D,Raw,Yes,,,,,,-170,-185,-185,,,Amateur Teen 16-17,1996-05-02,DQ
Vladislav Gritskov,Владислав Грицков,M,78.9,,,,,,170,82.5,D,Raw,Yes,,,,,,-170,170,-180,170,,Amateur Open,1989-01-19,1
Vladimir Dorogoy,Владимир Дорогой,M,88.9,,,,,,290,90,D,Raw,Yes,,,,,,265,282.5,290,290,,Amateur Open,1988-11-27,1
Dmitriy Gushchin,Дмитрий Гущин,M,89,,,,,,240,90,D,Raw,Yes,,,,,,-225,230,240,240,,Amateur Open,1985-08-27,2
Evgeniy Brylyakov,Евгений Брыляков,M,85.5,,,,,,230,90,D,Raw,Yes,,,,,,210,222.5,230,230,,Amateur Open,1982-04-25,3
Nikita Semyonov,Никита Семёнов,M,88.3,,,,,,230,90,D,Raw,Yes,,,,,,-230,-230,230,230,,Amateur Open,1985-10-19,4
Timofey Shirokov,Тимофей Широков,M,94.7,,,,,,242.5,100,D,Raw,Yes,,,,,,232.5,240,242.5,242.5,,Amateur Open,1982-02-23,1
Arseniy Klevakin,Арсений Клевакин,M,98.3,,,,,,225,100,D,Raw,Yes,,,,,,205,215,225,225,,Amateur Open,1979-10-15,2
Aleksey Konakov,Алексей Конаков,M,92.7,,,,,,202.5,100,D,Raw,Yes,,,,,,202.5,-232.5,,202.5,,Amateur Open,1977-10-12,3
Vitaliy Zadvornykh,Виталий Задворных,M,91.2,,,,,,232.5,100,D,Raw,Yes,,,,,,232.5,-240,,232.5,,Amateur Masters 40-44,1973-10-21,1
Aleksey Bannov,Алексей Баннов,M,108.5,,,,,,290,110,D,Raw,Yes,,,,,,260,-285,290,290,,Amateur Juniors,1990-06-07,1
Vitaliy Rodionov,Виталий Родионов,M,108.7,,,,,,260,110,D,Raw,Yes,,,,,,260,-275,-275,260,,Amateur Juniors,1990-03-03,2
Nikita Skvortsov,Никита Скворцов,M,101.1,,,,,,232.5,110,D,Raw,Yes,,,,,,210,-220,232.5,232.5,,Amateur Juniors,1990-02-15,3
Aleksandr Marfitsin,Александр Марфицин,M,108.8,,,,,,305,110,D,Raw,Yes,,,,,,290,305,-312.5,305,,Amateur Open,1982-08-23,1
Vitaliy Pushkarev,Виталий Пушкарев,M,105.7,,,,,,220,110,D,Raw,Yes,,,,,,220,-230,,220,,Amateur Open,1983-05-23,2
Konstantin Shcherbina,Константин Щербина,M,134.2,,,,,,,140,D,Raw,Yes,,,,,,-245,-255,-255,,,Amateur Masters 40-44,1970-05-28,DQ
Ivan Tsigelnik,Иван Цигельник,M,142.2,,,,,,337.5,140+,D,Raw,Yes,,,,,,280,310,337.5,337.5,,Amateur Juniors,1990-11-12,1
Vladimir Polivanov,Владимир Поливанов,M,120.6,,,,,,290,125,D,Raw,Yes,,,,,,260,280,290,290,,Amateur Open,1963-01-20,1
Yuliya Tatyanina,Юлия Татьянина,F,58.3,100,105,107.5,107.5,112.5,107.5,60,B,Raw,No,,,,,,,,,,,Pro Open,1989-02-13,1
Dmitriy Vedrov,Дмитрий Ведров,M,44.4,25,35,42.5,42.5,,42.5,52,B,Raw,No,,,,,,,,,,,Pro Teen 13-15,2000-04-27,1
Marat Zanakhov,Марат Занахов,M,58.1,115,120,-122.5,120,,120,60,B,Raw,No,,,,,,,,,,,Pro Juniors,1989-12-14,1
Aleksey Zaytsev,Алексей Зайцев,M,57.8,100,105,110,110,,110,60,B,Raw,No,,,,,,,,,,,Pro Open,1987-10-17,1
Gennadiy Pereladov,Геннадий Переладов,M,72,75,80,85,85,,85,75,B,Raw,No,,,,,,,,,,,Pro Masters,1936-06-06,1
Andrey Shelepov,Андрей Шелепов,M,82.5,155,162.5,170,170,,170,82.5,B,Raw,No,,,,,,,,,,,Pro Open,1970-05-04,1
Aleksandr Zaytsev,Александр Зайцев,M,79.8,135,140,145,145,,145,82.5,B,Raw,No,,,,,,,,,,,Pro Open,1987-05-20,2
Eduard Nozhkov,Эдуард Ножков,M,79.6,-130,-130,130,130,,130,82.5,B,Raw,No,,,,,,,,,,,Pro Open,1975-11-10,3
Andrey Shelepov,Андрей Шелепов,M,82,155,162.5,170,170,,170,82.5,B,Raw,No,,,,,,,,,,,Pro Masters 40-44,1970-05-04,1
Aleksandr Leonov,Александр Леонов,M,77.6,90,95,100,100,,100,82.5,B,Raw,No,,,,,,,,,,,Pro Masters 50-54,1959-06-11,1
Roman Lepeshkin,Роман Лепешкин,M,88.6,175,185,190,190,,190,90,B,Raw,No,,,,,,,,,,,Pro Open,1978-11-25,1
Eduard Pershin,Эдуард Першин,M,88,190,200,207.5,207.5,,207.5,90,B,Raw,No,,,,,,,,,,,Pro Masters 40-44,1970-05-10,1
Aleksandr Zhilin,Александр Жилин,M,83.9,120,130,135,135,,135,90,B,Raw,No,,,,,,,,,,,Pro Masters 45-49,1965-10-14,1
Vladimir Lymar,Владимир Лымарь,M,98.6,190,200,-205,200,,200,100,B,Raw,No,,,,,,,,,,,Pro Open,1987-05-02,1
Denis Zaytsev,Денис Зайцев,M,92.9,150,160,165,165,,165,100,B,Raw,No,,,,,,,,,,,Pro Open,1983-02-22,2
Marat Yusupov,Марат Юсупов,M,93.4,-150,150,162.5,162.5,,162.5,100,B,Raw,No,,,,,,,,,,,Pro Open,1984-12-24,3
Sergey Konovalov,Сергей Коновалов,M,92.6,140,150,155,155,,155,100,B,Raw,No,,,,,,,,,,,Pro Masters 40-44,1969-03-22,1
Fedor Chesnokov,Федор Чесноков,M,91.3,130,140,145,145,,145,100,B,Raw,No,,,,,,,,,,,Pro Masters 65-69,1947-02-16,1
Gleb Tutynin,Глеб Тутынин,M,105.9,155,162.5,170,170,,170,110,B,Raw,No,,,,,,,,,,,Pro Juniors,1992-10-04,1
Aleksandr Deryabin,Александр Дерябин,M,108.9,205,215,222.5,222.5,,222.5,110,B,Raw,No,,,,,,,,,,,Pro Open,1978-02-11,1
Timofey Rulev,Тимофей Рулев,M,109.3,195,-205,210,210,,210,110,B,Raw,No,,,,,,,,,,,Pro Open,1988-02-10,2
Sergey Martyanov,Сергей Мартьянов,M,102.2,190,202.5,205,205,,205,110,B,Raw,No,,,,,,,,,,,Pro Open,1975-02-25,3
Aleksandr Spiryanin,Александр Спирянин,M,106,190,-197.5,202.5,202.5,,202.5,110,B,Raw,No,,,,,,,,,,,Pro Open,1977-12-19,4
Dmitriy Kosarev,Дмитрий Косарев,M,109.2,180,185,-190,185,,185,110,B,Raw,No,,,,,,,,,,,Pro Masters 40-44,1972-07-16,1
Igor Khramtsov,Игорь Храмцов,M,103.6,140,150,155,155,,155,110,B,Raw,No,,,,,,,,,,,Pro Masters 40-44,1973-04-17,2
Stanislav Alekseykin,Станислав Алексейкин,M,136.3,225,235,,235,,235,140,B,Raw,No,,,,,,,,,,,Pro Open,1982-07-14,1
Igor Osipov,Игорь Осипов,M,79.2,145,-155,155,155,,155,82.5,B,Single-ply,No,,,,,,,,,,,Pro Juniors,1990-05-21,1
Sergey Naleykin,Сергей Налейкин,M,76.2,242.5,250,-260,250,,250,82.5,B,Single-ply,No,,,,,,,,,,,Pro Open,1981-06-15,1
Eduard Isakov,Эдуард Исаков,M,88.6,200,210,-220,210,,210,90,B,Single-ply,No,,,,,,,,,,,Pro Masters 45-49,1966-07-18,1
Sergey Konovalov,Сергей Коновалов,M,92.6,170,180,190,190,,190,100,B,Single-ply,No,,,,,,,,,,,Pro Masters 40-44,1969-03-22,1
Ilya Pakhomov,Илья Пахомов,M,105.7,-262.5,270,-280,270,,270,110,B,Single-ply,No,,,,,,,,,,,Pro Open,1988-08-21,1
Grigoriy Dvoretskikh,Григорий Дворецких,M,124.5,255,265,275,275,,275,125,B,Single-ply,No,,,,,,,,,,,Pro Open,1976-11-12,1
Eduard Khaliullin,Эдуард Халиуллин,M,107.9,-300,-300,300,300,,300,110,B,Multi-ply,No,,,,,,,,,,,Pro Open,1973-05-22,1
Sergey Kolesnichenko,Сергей Колесниченко,M,138.3,-290,-300,-320,,,,140,B,Multi-ply,No,,,,,,,,,,,Pro Open,1979-11-19,DQ
Sergey Fadeev,Сергей Фадеев,M,76.5,120,130,-140,130,,440,82.5,SBD,Raw,No,-120,135,-150,135,,140,160,175,175,,Pro Juniors,1990-02-28,1
Sergey Ilyukhin,Сергей Илюхин,M,82.3,120,130,140,140,,520,82.5,SBD,Raw,No,150,170,,170,,210,,,210,,Pro Open,1981-09-19,1
Konstantin Morozov,Константин Морозов,M,89.9,100,-110,110,110,,387.5,90,SBD,Raw,No,110,120,125,125,,130,145,152.5,152.5,,Pro Juniors,1991-08-04,1
Vladimir Minin,Владимир Минин,M,99.8,150,160,170,170,,760,100,SBD,Raw,No,280,290,-300,290,,280,300,-305,300,,Pro Open,1967-08-29,1
Mikhail Grinko,Михаил Гринько,M,107.7,150,170,,170,,530,110,SBD,Raw,No,170,190,,190,,170,,,170,,Pro Open,1978-02-04,1
Vladimir Lopin,Владимир Лопин,M,121.3,220,230,235,235,,865,125,SBD,Raw,No,280,300,310,310,,-300,310,320,320,,Pro Open,1983-01-21,1
Vladimir Komissarov,Владимир Комиссаров,M,55.6,115,120,127.5,127.5,,565,56,SBD,Single-ply,No,205,-217.5,217.5,217.5,,205,220,-227.5,220,,Pro Teen 18-19,1994-12-19,1
Sergey Statsuk,Сергей Стацук,M,74.4,135,142.5,150,150,,630,75,SBD,Single-ply,No,235,245,-255,245,,215,225,235,235,,Pro Open,1982-09-02,1
Viktor Shmatkov,Виктор Шматков,M,75,145,152.5,155,155,,620,75,SBD,Single-ply,No,-235,235,245,245,,-210,220,-232.5,220,,Pro Open,1982-11-05,2
Aleksandr Brodyagin,Александр Бродягин,M,88.5,200,210,-220,210,,720,90,SBD,Single-ply,No,-260,-260,260,260,,230,240,250,250,,Pro Teen 18-19,1994-03-27,1
Denis Gordeev,Денис Гордеев,M,84.9,-150,150,-160,150,,670,90,SBD,Single-ply,No,245,260,270,270,,250,-277.5,-277.5,250,,Pro Open,1981-07-31,1
Ruslan Ramazanov,Руслан Рамазанов,M,93.6,-150,150,,150,,610,100,SBD,Single-ply,No,230,-245,-250,230,,-220,220,230,230,,Pro Juniors,1993-04-19,1
Vladimir Kalinichenko,Владимир Калиниченко,M,150,170,185,,185,,930,140+,SBD,Single-ply,No,365,390,,390,,335,355,,355,,Pro Masters 40-44,1972-11-06,1
Evgeniy Naumov,Евгений Наумов,M,98.2,180,190,-200,190,,740,100,SBD,Multi-ply,No,290,-310,-320,290,,230,245,260,260,,Pro Juniors,1992-03-01,1
Rustam Mukhametzhanov,Рустам Мухаметжанов,M,97.6,,,,,,,100,SBD,Multi-ply,No,-330,-330,-330,,,,,,,,Pro Open,1987-03-23,DQ
Alla Kalinichenko,Алла Калиниченко,F,66,,,,,,182.5,67.5,D,Raw,No,,,,,,155,170,182.5,182.5,,Pro Open,1971-04-08,1
Sergey Ilyukhin,Сергей Илюхин,M,82.3,,,,,,240,82.5,D,Raw,No,,,,,,210,230,240,240,,Pro Open,1981-09-19,1
Vadim Zaytsev,Вадим Зайцев,M,89.9,,,,,,250,90,D,Raw,No,,,,,,-230,230,250,250,,Pro Masters 50-54,1960-08-26,2
Mikhail Grinko,Михаил Гринько,M,107.7,,,,,,200,110,D,Raw,No,,,,,,170,200,,200,,Pro Open,1978-02-04,2
Stanislav Alekseykin,Станислав Алексейкин,M,136.3,,,,,,350,140,D,Raw,No,,,,,,350,-365,,350,,Pro Open,1982-07-14,1
Nikolay Motiponenko,Николай Мотипоненко,M,88.4,,,,,,245,90,D,Raw,No,,,,,,245,-260,-260,245,,Pro Teen 18-19,1993-12-05,1
Vadim Zaytsev,Вадим Зайцев,M,89.9,,,,,,260,90,D,Raw,No,,,,,,230,260,,260,,Pro Masters 50-54,1960-08-26,1
Mikhail Grinko,Михаил Гринько,M,107.7,,,,,,270,110,D,Raw,No,,,,,,170,220,270,270,,Pro Open,1978-02-04,1
