Name,BodyweightKg,Age,Equipment,Event,WeightClassKg,Sex,Division,Squat1Kg,Squat2Kg,Squat3Kg,Best3SquatKg,Squat4Kg,Bench1Kg,Bench2Kg,Bench3Kg,Best3BenchKg,Bench4Kg,Deadlift1Kg,Deadlift2Kg,Deadlift3Kg,Best3DeadliftKg,Deadlift4Kg,TotalKg,Place
Krystine Loring,50.53,22,Wraps,SBD,52,F,Juniors 20-23,52.16,61.23,-68.04,61.23,,34.02,38.56,-43.09,38.56,,83.91,92.99,102.06,102.06,,201.85,1
Wendy Poitras,55.29,43,Wraps,SBD,56,F,Masters 40-44,58.97,65.77,72.57,72.57,,43.09,45.36,-47.63,45.36,,81.65,92.99,102.06,102.06,,219.99,1
Ginger Viera,67.4,23,Wraps,SBD,67.5,F,Open,102.06,106.59,113.4,113.4,120.2,77.11,-83.91,83.91,83.91,,122.47,136.08,-140.61,136.08,,333.39,1
Ginger Viera,67.4,23,Wraps,SBD,67.5,F,Juniors 20-23,102.06,106.59,113.4,113.4,120.2,77.11,-83.91,83.91,83.91,,122.47,136.08,-140.61,136.08,,333.39,1
Betsy Bowen,74.21,58,Wraps,SBD,75,F,Masters 55-59,108.86,120.2,129.27,129.27,,54.43,-58.97,58.97,58.97,,113.4,122.47,-136.08,122.47,,310.71,1
Nohoami Berby,78.11,24,Wraps,SBD,82.5,F,Open,90.72,-106.59,106.59,106.59,,61.23,65.77,70.31,70.31,,104.33,115.67,120.2,120.2,,297.1,1
Michelle Beane,96.8,37,Wraps,SBD,100,F,Submasters 33-39,-90.72,90.72,113.4,113.4,,68.04,72.57,77.11,77.11,,113.4,127.01,138.35,138.35,,328.85,1
Timothy Shields,64.5,18,Wraps,SBD,67.5,M,Teen 18-19,124.74,131.54,142.88,142.88,,74.84,81.65,-86.18,81.65,,74.84,81.65,-86.18,81.65,,306.18,1
Joseph O'Connell,66.32,56,Wraps,SBD,67.5,M,Masters 55-59,113.4,120.2,-129.27,120.2,,83.91,88.45,-90.72,88.45,,154.22,163.29,,163.29,,371.95,1
Eric Daunais,75,19,Wraps,SBD,75,M,Teen 18-19,165.56,181.44,-192.78,181.44,,97.52,-102.06,102.06,102.06,,174.63,195.04,-204.12,195.04,,478.54,1
James Aikey,80.01,27,Wraps,SBD,82.5,M,Open,235.87,258.55,272.16,272.16,,147.42,156.49,161.03,161.03,,249.48,272.16,-276.69,272.16,,705.34,1
Ryan Gilman,82.42,34,Wraps,SBD,82.5,M,Submasters 33-39,136.08,151.95,-170.1,151.95,,113.4,120.2,127.01,127.01,,145.15,158.76,170.1,170.1,,449.06,1
Charles Ploof,80.83,42,Wraps,SBD,82.5,M,Masters 40-44,181.44,204.12,217.72,217.72,,127.01,136.08,-142.88,136.08,,181.44,204.12,217.72,217.72,,571.53,1
Michael Berby,89.81,28,Wraps,SBD,90,M,Open,213.19,-231.33,235.87,235.87,,163.29,172.37,-181.44,172.37,,163.29,172.37,-181.44,172.37,,580.61,1
Eric Argentieri,97.61,18,Wraps,SBD,100,M,Teen 18-19,215.46,224.53,233.6,233.6,,136.08,142.88,,142.88,,224.53,238.14,249.48,249.48,272.16,625.96,1
Nick Stanley,114.31,16,Wraps,SBD,125,M,Teen 16-17,136.08,145.15,158.76,158.76,,92.99,-97.52,97.52,97.52,,165.56,179.17,192.78,192.78,,449.06,1
Donna Aliminosa,41,57,Multi-ply,SBD,44,F,Open,86.18,95.25,,95.25,,43.09,45.36,-47.63,45.36,,102.06,113.4,117.93,117.93,,258.55,1
Odette Michaud,39.28,46,Multi-ply,SBD,44,F,Masters 45-49,90.72,95.25,-97.52,95.25,,34.02,36.29,38.56,38.56,,124.74,129.27,131.54,131.54,,265.35,1
Donna Aliminosa,41,57,Multi-ply,SBD,44,F,Masters 55-59,86.18,95.25,,95.25,,43.09,45.36,-47.63,45.36,,102.06,113.4,117.93,117.93,,258.55,1
Tammy B. Howard,59.96,38,Multi-ply,SBD,60,F,Submasters 33-39,127.01,138.35,-151.95,138.35,,83.91,-95.25,95.25,95.25,,127.01,138.35,-145.15,138.35,,371.95,1
Amy Terrien,82.01,28,Multi-ply,SBD,82.5,F,Open,154.22,165.56,170.1,170.1,,-102.06,111.13,120.2,120.2,,147.42,158.76,-170.1,158.76,,449.06,1
Tina Jones,111.13,49,Multi-ply,SBD,90+,F,Masters 45-49,172.37,183.7,188.24,188.24,,124.74,-138.35,138.35,138.35,,149.69,161.03,-170.1,161.03,,487.62,1
Mike Andersen,66.77,21,Multi-ply,SBD,67.5,M,Juniors 20-23,215.46,240.4,249.48,249.48,,142.88,154.22,158.76,158.76,,215.46,229.06,235.87,235.87,,644.1,1
Rob Davis,70.76,41,Multi-ply,SBD,75,M,Open,151.95,-165.56,183.7,183.7,,145.15,149.69,154.22,154.22,,183.7,201.85,217.72,217.72,,555.65,1
Rob Davis,70.76,41,Multi-ply,SBD,75,M,Masters 40-44,151.95,-165.56,183.7,183.7,,145.15,149.69,154.22,154.22,,183.7,201.85,217.72,217.72,,555.65,1
Claude Dallaire,82.19,48,Multi-ply,SBD,82.5,M,Masters 45-49,249.48,260.82,263.08,263.08,,,158.76,163.29,163.29,,299.37,308.44,317.51,317.51,,743.89,1
Wendell Amerio,86.18,26,Multi-ply,SBD,90,M,Open,226.8,-249.48,249.48,249.48,,151.95,-165.56,165.56,165.56,,238.14,249.48,-260.82,249.48,,664.52,2
Vincent Hevey,85.46,17,Multi-ply,SBD,90,M,Teen 16-17,-172.37,172.37,183.7,183.7,,102.06,108.86,-113.4,108.86,,204.12,213.19,219.99,219.99,,512.56,1
Claude Viger,82.74,36,Multi-ply,SBD,90,M,Submasters 33-39,204.12,226.8,238.14,238.14,,174.63,181.44,-185.97,181.44,,238.14,249.48,260.82,260.82,,680.39,3
Wayne Lacey,89.63,43,Multi-ply,SBD,90,M,Masters 40-44,256.28,-272.16,272.16,272.16,,149.69,-158.76,158.76,158.76,,229.06,-244.94,244.94,244.94,,675.86,1
Scott Walwrath,88.63,46,Multi-ply,SBD,90,M,Masters 45-49,170.1,181.44,-192.78,181.44,,97.52,106.59,,106.59,,165.56,181.44,192.78,192.78,,480.81,1
Robert Murphy,98.43,44,Multi-ply,SBD,100,M,Masters 40-44,229.06,244.94,-256.28,244.94,,142.88,154.22,-161.03,154.22,,229.06,233.6,-238.14,233.6,,632.76,1
Dennis Montembault,99.61,54,Multi-ply,SBD,100,M,Masters 50-54,283.5,290.3,-294.84,290.3,,158.76,183.7,-190.51,183.7,,215.46,226.8,-238.14,226.8,,700.8,1
Nicholas Marcoux,118.39,32,Multi-ply,SBD,125,M,Open,226.8,242.67,251.74,251.74,,-229.06,-231.33,231.33,231.33,,,,,,,,DQ
Sebastien Grenier,127.46,36,Multi-ply,SBD,140,M,Open,294.84,317.51,328.85,328.85,,263.08,272.16,278.96,278.96,,299.37,328.85,344.73,344.73,,952.54,1
Andy Jones,81.01,25,Multi-ply,SBD,82.5,M,Open,240.4,249.48,260.82,260.82,,-161.03,-161.03,161.03,161.03,,,,,,,,DQ
Brian Highnote,89.54,35,Multi-ply,SBD,90,M,Submasters 33-39,278.96,-299.37,301.64,301.64,,208.65,217.72,-229.06,217.72,,226.8,242.67,251.74,251.74,,771.11,1
James Matta,89.9,33,Multi-ply,SBD,90,M,Submasters 33-39,254.01,263.08,-272.16,263.08,,235.87,-244.94,244.94,244.94,,226.8,233.6,-240.4,233.6,,741.62,2
Brian Highnote,89.54,35,Multi-ply,SBD,90,M,Open,278.96,-299.37,301.64,301.64,,208.65,217.72,-229.06,217.72,,226.8,242.67,251.74,251.74,,771.11,1
Dan Hebert,97.79,26,Multi-ply,SBD,100,M,Open,249.48,260.82,-272.16,260.82,,215.46,-226.8,226.8,226.8,,226.8,238.14,249.48,249.48,,737.1,1
Mike Ahearn,107.5,39,Multi-ply,SBD,110,M,Open,306.17,340.19,-362.87,340.19,,192.78,-210.92,,192.78,,-306.17,317.51,-331.12,317.51,,850.49,1
Mike Ahearn,107.5,39,Multi-ply,SBD,110,M,Submasters 33-39,306.17,340.19,-362.87,340.19,,192.78,-210.92,,192.78,,-306.17,317.51,-331.12,317.51,,850.49,1
Curtis Stapleton,53.89,18,Raw,BD,56,M,Teen 18-19,,,,,,54.43,61.23,68.04,68.04,,108.86,117.93,129.27,129.27,,197.31,1
Bryan Cunningham,57.61,34,Raw,BD,60,M,Submasters 33-39,,,,,,63.5,72.57,83.91,83.91,,102.06,124.74,147.42,147.42,,231.33,1
Robert Lemieux,81.83,,Raw,BD,82.5,M,Submasters 33-39,,,,,,111.13,120.2,-127.01,120.2,,165.56,176.9,192.78,192.78,,312.98,1
Luke Windway,99.34,16,Raw,BD,100,M,Teen 16-17,,,,,,111.13,-120.2,120.2,120.2,,174.63,183.7,-192.78,183.7,,303.9,1
Gary Stewart,99.79,40,Raw,BD,100,M,Masters 40-44,,,,,,111.13,120.2,-129.27,120.2,,174.63,183.7,199.58,199.58,,319.78,1
Jason Smith,74.48,29,Multi-ply,BD,75,M,Open,,,,,,-108.86,120.2,-127.01,120.2,,142.88,154.22,-158.76,154.22,,274.42,1
Nate Bauman,98.43,15,Multi-ply,BD,100,M,Teen 13-15,,,,,,102.06,-115.67,122.47,122.47,,104.33,113.4,127.01,127.01,,249.48,1
Cory Fredette,109.68,21,Multi-ply,BD,110,M,Juniors 20-23,,,,,,-185.97,185.97,204.12,204.12,,249.48,-272.16,272.16,272.16,,476.28,1
Russell Hayward,109.04,23,Multi-ply,BD,110,M,Juniors 20-23,,,,,,185.97,-192.78,192.78,192.78,,238.14,249.48,-260.82,249.48,,442.26,2
James Matta,89.9,33,Multi-ply,BD,90,M,Submasters 33-39,,,,,,235.87,-244.94,244.94,244.94,,226.8,233.6,-240.4,233.6,,478.54,1
Glen Ford,66.41,47,Raw,B,67.5,M,Masters 45-49,,,,,,115.67,127.01,-129.27,127.01,,,,,,,,DQ
Marcel St. Laurent,70.31,66,Raw,B,75,M,Open,,,,,,-129.27,136.08,142.88,142.88,,,,,,,,DQ
Marcel St. Laurent,70.31,66,Raw,B,75,M,Masters 65-69,,,,,,-129.27,136.08,142.88,142.88,,,,,,,,DQ
David Maloney,81.47,23,Raw,B,82.5,M,Juniors 20-23,,,,,,124.74,-142.88,145.15,145.15,,,,,,,,DQ
Ryan Stockton,93.53,17,Raw,B,100,M,Teen 16-17,,,,,,145.15,151.95,154.22,154.22,158.76,,,,,,,DQ
Bruno Lapierre,99.79,22,Raw,B,100,M,Juniors 20-23,,,,,,163.29,172.37,181.44,181.44,,,,,,,,DQ
Jermaine Scott,102.42,25,Raw,B,110,M,Open,,,,,,185.97,192.78,197.31,197.31,,,,,,,,DQ
Brian LaPila,129.27,35,Raw,B,140,M,Submasters 33-39,,,,,,201.85,208.65,217.72,217.72,,,,,,,,DQ
Brent Blake,94.26,45,Multi-ply,B,100,M,Masters 45-49,,,,,,-136.08,147.42,-165.56,147.42,,,,,,,,DQ
Andrei Audovikine,105.51,35,Multi-ply,B,110,M,Open,,,,,,172.37,183.7,190.51,190.51,,,,,,,,DQ
Andrei Audovikine,105.51,35,Multi-ply,B,110,M,Submasters 33-39,,,,,,172.37,183.7,190.51,190.51,,,,,,,,DQ
Adam Szeps,108.59,23,Multi-ply,B,110,M,Juniors 20-23,,,,,,-260.82,260.82,-272.16,260.82,,,,,,,,DQ
Thomas Chojnowski,108.86,52,Multi-ply,B,110,M,Masters 50-54,,,,,,-249.48,249.48,-267.62,249.48,,,,,,,,DQ
Gus Breault,124.74,35,Multi-ply,B,125,M,Submasters 33-39,,,,,,229.06,-240.4,254.01,254.01,,,,,,,,DQ
Andrew Worobec,81.92,19,Raw,D,82.5,M,Teen 18-19,,,,,,,,,,,199.58,219.99,233.6,233.6,235.87,,DQ
Thomas Chojnowski,108.86,52,Raw,D,110,M,Masters 50-54,,,,,,,,,,,272.16,283.5,-299.37,283.5,,,DQ
David Cospito,108.5,51,Raw,D,110,M,Masters 50-54,,,,,,,,,,,226.8,238.14,-251.74,238.14,,,DQ
David Cospito,108.5,51,Raw,D,110,M,Open,,,,,,,,,,,226.8,238.14,-251.74,238.14,,,DQ
Shane Marino,146.06,28,Raw,D,140+,M,Open,,,,,,,,,,,265.35,278.96,-294.84,278.96,,,DQ
Claude Dallaire,82.19,48,Multi-ply,D,82.5,M,Masters 45-49,,,,,,,,,,,299.37,308.44,317.51,317.51,,,DQ
Jason Ferreira,80.29,29,Multi-ply,D,82.5,M,Open,,,,,,,,,,,238.14,254.01,-260.82,254.01,,,DQ
Eddie DiFruscia,89.36,44,Multi-ply,D,90,M,Masters 40-44,,,,,,,,,,,233.6,274.42,283.5,283.5,,,DQ
Eddie DiFruscia,89.36,44,Multi-ply,D,90,M,Open,,,,,,,,,,,233.6,274.42,283.5,283.5,,,DQ
