Division,WeightClassKg,Place,Name,Team,BodyweightKg,Best3SquatKg,Best3BenchKg,Best3DeadliftKg,TotalKg,Equipment,Event,Sex
Boys,52,1,Oscar Yanez,Sulphur Springs,50.26,113.4,63.5,113.4,290.3,Single-ply,SBD,M
Boys,52,2,Antaun Polk,Fairfield,48.08,106.59,43.09,104.33,254.01,Single-ply,SBD,M
Boys,52,3,Lane Anthony,Nevada Community,42.09,90.72,45.36,102.06,238.14,Single-ply,SBD,M
Boys,52,4,Alex Rodriguez,Sulphur Springs,50.98,90.72,47.63,97.52,235.87,Single-ply,SBD,M
Boys,56,1,Joe ell Morales,Sulphur Springs,55.07,136.08,70.31,142.88,349.27,Single-ply,SBD,M
Boys,56,2,Evelio Mendoza,Gilmer,54.07,131.54,63.5,136.08,331.12,Single-ply,SBD,M
Boys,56,3,Rigo Herrera,Van,55.43,90.72,65.77,102.06,258.55,Single-ply,SBD,M
Boys,60,1,Julian Fierros,Longview Pine Tree,59.42,127.01,86.18,149.69,362.87,Single-ply,SBD,M
Boys,60,2,Dustin Crabtree,Sulphur Springs,59.87,138.35,63.5,145.15,347,Single-ply,SBD,M
Boys,60,3,Landon Bautista,Quitman,58.15,106.59,68.04,145.15,319.78,Single-ply,SBD,M
Boys,60,4,Alex Rodriguez,Fairfield,57.52,122.47,65.77,124.74,312.98,Single-ply,SBD,M
Boys,60,5,Kaden McKinney,Van,57.42,97.52,52.16,129.27,278.96,Single-ply,SBD,M
Boys,60,6,Allan Hira,Van,56.88,106.59,58.97,106.59,272.16,Single-ply,SBD,M
Boys,67.5,1,Fabin Roman,Quitman,66.95,183.7,92.99,190.51,467.2,Single-ply,SBD,M
Boys,67.5,2,Cesar Colunga,Emory Rains,66.32,176.9,92.99,183.7,453.59,Single-ply,SBD,M
Boys,67.5,3,Jonathan Alvarez,Sulphur Springs,61.33,165.56,81.65,165.56,412.77,Single-ply,SBD,M
Boys,67.5,4,Javon Dawson,Longview Pine Tree,63.5,163.29,79.38,170.1,412.77,Single-ply,SBD,M
Boys,67.5,5,Scott Galarza,Sulphur Springs,61.87,151.95,90.72,163.29,405.97,Single-ply,SBD,M
Boys,67.5,6,Michael Broyles,Canton,64.95,154.22,79.38,163.29,396.89,Single-ply,SBD,M
Boys,67.5,7,Sean Collins,Gilmer,64.23,149.69,83.91,158.76,392.36,Single-ply,SBD,M
Boys,67.5,8,Spencer Jones,Mineola,64.32,131.54,95.25,158.76,385.55,Single-ply,SBD,M
Boys,67.5,9,Zach Thompson,Gilmer,67.13,142.88,79.38,147.42,369.68,Single-ply,SBD,M
Boys,67.5,10,Orran Simons,Longview Pine Tree,61.05,136.08,81.65,147.42,365.14,Single-ply,SBD,M
Boys,67.5,11,Kyle Durnal,Hawkins,67.04,133.81,74.84,151.95,360.61,Single-ply,SBD,M
Boys,67.5,12,Christian Garcia,Emory Rains,64.95,129.27,74.84,154.22,358.34,Single-ply,SBD,M
Boys,67.5,13,Justin Maxey,Nevada Community,62.6,124.74,83.91,145.15,353.8,Single-ply,SBD,M
Boys,67.5,14,Lukas Enloe,Gilmer,65.86,131.54,79.38,136.08,347,Single-ply,SBD,M
Boys,67.5,15,Blayne Stauffer,Fairfield,67.13,142.88,83.91,120.2,347,Single-ply,SBD,M
Boys,67.5,16,Ty Bachtel,Fairfield,66.68,124.74,72.57,136.08,333.39,Single-ply,SBD,M
Boys,75,1,Nick Mooneyham,Fairfield,70.67,197.31,102.06,188.24,487.61,Single-ply,SBD,M
Boys,75,2,Jax Tobias,Van,73.75,176.9,106.59,188.24,471.74,Single-ply,SBD,M
Boys,75,3,Cor'tavius Pruitt,Sulphur Springs,67.77,188.24,99.79,181.44,469.47,Single-ply,SBD,M
Boys,75,4,Vincent Morales,Sulphur Springs,73.12,167.83,106.59,195.04,469.47,Single-ply,SBD,M
Boys,75,5,Jashaughn Hatcher,Fairfield,73.57,158.76,102.06,204.12,464.93,Single-ply,SBD,M
Boys,75,6,Bradley Shanks,Canton,73.03,190.51,83.91,183.7,458.13,Single-ply,SBD,M
Boys,75,7,Mason Cleveland,Sulphur Springs,67.77,142.88,86.18,170.1,399.16,Single-ply,SBD,M
Boys,75,8,Tristan Gentry,Van,74.48,140.61,92.99,165.56,399.16,Single-ply,SBD,M
Boys,75,9,Carson Bridges,Sulphur Springs,69.67,149.69,77.11,161.03,387.82,Single-ply,SBD,M
Boys,75,10,Garridan Henderson,Fairfield,73.57,145.15,72.57,136.08,353.8,Single-ply,SBD,M
Boys,75,11,Ricky Deville,Canton,74.84,120.2,83.91,133.81,337.93,Single-ply,SBD,M
Boys,75,12,Cody Hawkins,Canton,71.76,131.54,68.04,120.2,319.78,Single-ply,SBD,M
Boys,75,13,Timothy Block,Grand Saline,69.22,108.86,61.23,111.13,281.23,Single-ply,SBD,M
Boys,75,14,Bernard Robinson,Emory Rains,71.03,,81.65,154.22,235.87,Single-ply,BD,M
Boys,82.5,1,Isaiah Neal,Sulphur Springs,81.92,201.85,108.86,199.58,510.29,Single-ply,SBD,M
Boys,82.5,2,Adrian Martinez,Grand Saline,77.02,172.37,120.2,176.9,469.47,Single-ply,SBD,M
Boys,82.5,3,Weston Potts,Emory Rains,76.38,156.49,92.99,181.44,430.91,Single-ply,SBD,M
Boys,82.5,4,Bradley Brown,Canton,76.48,158.76,77.11,181.44,417.3,Single-ply,SBD,M
Boys,82.5,5,Justin Sanden,Fairfield,76.38,142.88,95.25,158.76,396.89,Single-ply,SBD,M
Boys,82.5,6,Isiah Richardson,Longview Pine Tree,78.56,174.63,,204.12,378.75,Single-ply,SD,M
Boys,82.5,7,Austin Aaron,Hawkins,76.38,124.74,79.38,165.56,369.68,Single-ply,SBD,M
Boys,82.5,8,Evan Rushing,Sulphur Springs,79.56,151.95,68.04,140.61,360.61,Single-ply,SBD,M
Boys,82.5,9,Clayton Neel,Nevada Community,75.93,102.06,61.23,142.88,306.17,Single-ply,SBD,M
Boys,90,1,Eli Britt,Emory Rains,88.9,240.4,136.08,217.72,594.21,Single-ply,SBD,M
Boys,90,2,Derek Mayhugh,Grand Saline,83.64,170.1,95.25,185.97,451.32,Single-ply,SBD,M
Boys,90,3,Brad Davenport,Quitman,82.37,163.29,106.59,167.83,437.72,Single-ply,SBD,M
Boys,90,4,Jake Kellum,Van,83.73,158.76,108.86,163.29,430.91,Single-ply,SBD,M
Boys,90,5,Jon Paye,Gilmer,84.01,158.76,95.25,172.37,426.38,Single-ply,SBD,M
Boys,90,6,Coltan Armstrong,Sulphur Springs,87.27,156.49,95.25,158.76,410.5,Single-ply,SBD,M
Boys,90,7,Ethan Hand,Canton,87.18,131.54,86.18,145.15,362.87,Single-ply,SBD,M
Boys,90,8,Ignacio Guerriz,Sulphur Springs,83.37,158.76,83.91,,242.67,Single-ply,SB,M
Boys,100,1,Christian Lemus,Van,98.25,226.8,149.69,185.97,562.45,Single-ply,SBD,M
Boys,100,2,Rowdy Teaff,Quitman,99.79,204.12,124.74,215.46,544.31,Single-ply,SBD,M
Boys,100,3,Jose Rodriguez,Gilmer,97.52,217.72,104.33,219.99,542.04,Single-ply,SBD,M
Boys,100,4,Sammy Palma,Grand Saline,99.79,197.31,127.01,210.92,535.24,Single-ply,SBD,M
Boys,100,5,Jesse Cowley,Nevada Community,94.89,206.38,90.72,206.38,503.49,Single-ply,SBD,M
Boys,100,6,Jesse Harwell,Hawkins,95.07,197.31,108.86,185.97,492.15,Single-ply,SBD,M
Boys,100,7,Jason White,Emory Rains,97.89,183.7,113.4,185.97,483.08,Single-ply,SBD,M
Boys,100,8,Jacob Hurst,Mineola,96.43,192.78,120.2,167.83,480.81,Single-ply,SBD,M
Boys,100,9,Jacob Gomez,Fairfield,98.43,258.55,,222.26,480.81,Single-ply,SD,M
Boys,100,10,Jose Rodriquez,Sulphur Springs,95.25,170.1,102.06,170.1,442.25,Single-ply,SBD,M
Boys,100,11,Jose Fuentes,Longview Pine Tree,92.17,163.29,113.4,156.49,433.18,Single-ply,SBD,M
Boys,100,12,Brendon Mooney,Hawkins,90.36,120.2,70.31,124.74,315.25,Single-ply,SBD,M
Boys,100,13,Josh Caruso,Mineola,95.89,113.4,77.11,124.74,315.25,Single-ply,SBD,M
Boys,100,14,Jordan Gable,Emory Rains,92.53,142.88,,,142.88,Single-ply,S,M
Boys,100,15,Brett Benson,Longview Pine Tree,93.71,79.38,,,79.38,Single-ply,S,M
Boys,110,1,Cole Beddingfield,Fairfield,104.78,274.42,176.9,210.92,662.24,Single-ply,SBD,M
Boys,110,2,Alex Baker,Longview Pine Tree,101.79,226.8,142.88,244.94,614.62,Single-ply,SBD,M
Boys,110,3,Ian Blanch,Sulphur Springs,104.14,226.8,131.54,219.99,578.33,Single-ply,SBD,M
Boys,110,4,Luke Bowden,Mineola,108.23,217.72,124.74,195.04,537.51,Single-ply,SBD,M
Boys,110,5,Alex Escandon,Nevada Community,106.23,208.65,127.01,183.7,519.36,Single-ply,SBD,M
Boys,110,6,Caleb York,Van,108.05,199.58,131.54,167.83,498.95,Single-ply,SBD,M
Boys,110,7,Wacy Warren,Quitman,100.79,170.1,124.74,158.76,453.59,Single-ply,SBD,M
Boys,110,8,Ivan Nelson,Canton,109.23,190.51,102.06,151.95,444.52,Single-ply,SBD,M
Boys,110,9,Kyle Williams,Hawkins,108.68,156.49,86.18,142.88,385.55,Single-ply,SBD,M
Boys,110,10,Coltin McDaniel,Canton,103.87,120.2,79.38,136.08,335.66,Single-ply,SBD,M
Boys,110,11,Dylan Boyce,Longview Pine Tree,103.69,111.13,,136.08,247.21,Single-ply,SD,M
Boys,125,1,Jerry Daniel,Nevada Community,123.29,274.42,158.76,265.35,698.53,Single-ply,SBD,M
Boys,125,2,Jamaal Wheeler,Gilmer,110.86,249.48,131.54,226.8,607.81,Single-ply,SBD,M
Boys,125,3,Jeremy Wood,Fairfield,115.39,256.28,158.76,192.78,607.81,Single-ply,SBD,M
Boys,125,4,Grant Farley,Quinlan Boles,120.29,226.8,131.54,215.46,573.79,Single-ply,SBD,M
Boys,125,5,Roland Stevens,Grand Saline,120.47,219.99,124.74,199.58,544.31,Single-ply,SBD,M
Boys,125,6,Dakota Smith,Canton,122.92,235.87,111.13,165.56,512.56,Single-ply,SBD,M
Boys,125,7,Drew Nunn,Canton,114.12,165.56,77.11,174.63,417.3,Single-ply,SBD,M
Boys,125+,1,Garrett Barnes,Grand Saline,133.9,233.6,131.54,206.38,571.53,Single-ply,SBD,M
Boys,125+,2,Isaac Sims,Quitman,132,174.63,108.86,197.31,480.81,Single-ply,SBD,M
Boys,125+,3,Noah Luelling,Quitman,131.72,154.22,99.79,158.76,412.77,Single-ply,SBD,M
Boys,125+,4,Jordan Young,Van,137.89,158.76,97.52,149.69,405.97,Single-ply,SBD,M
Boys,125+,5,Daniel Smith,Quinlan Boles,143.06,147.42,90.72,142.88,381.02,Single-ply,SBD,M
Boys,125+,6,Jason Boone,Hawkins,141.79,115.67,61.23,147.42,324.32,Single-ply,SBD,M
Boys,125+,7,Jakeb Jonaitis,Sulphur Springs,131.81,190.51,99.79,,290.3,Single-ply,SB,M
