Division,WeightClassKg,Place,Name,Team,BodyweightKg,Best3SquatKg,Best3BenchKg,Best3DeadliftKg,TotalKg,Equipment,Event,Sex
Boys,52,1,Tucker Neal,Jarrell,51.71,117.93,70.31,117.93,306.17,Single-ply,SBD,M
Boys,52,2,Horacio Huerta,Salado,51.71,81.65,,99.79,181.44,Single-ply,SD,M
Boys,56,1,Wrenn Bagley,Salado,55.79,127.01,77.11,131.54,335.66,Single-ply,SBD,M
Boys,56,2,Alexander Hernandez,Jarrell,55.79,124.74,74.84,127.01,326.59,Single-ply,SBD,M
Boys,60,1,Hunter Mullins,Jarrell,59.87,183.7,102.06,190.51,476.27,Single-ply,SBD,M
Boys,60,2,Karsen Trice,Salado,59.87,113.4,61.23,113.4,288.03,Single-ply,SBD,M
Boys,67.5,1,Seth Cummings,Pflugerville Hendrickson,67.13,142.88,79.38,183.7,405.97,Single-ply,SBD,M
Boys,67.5,2,Hunter Turk,Salado,67.13,142.88,,122.47,265.35,Single-ply,SD,M
Boys,75,1,Hunter Hernandez,Jarrell,74.84,161.03,113.4,183.7,458.13,Single-ply,SBD,M
Boys,75,2,Trey Schaub,Salado,74.84,158.76,102.06,170.1,430.91,Single-ply,SBD,M
Boys,75,3,Cade Depoy,Salado,74.84,151.95,102.06,165.56,419.57,Single-ply,SBD,M
Boys,75,4,TJ Eldridge,Pflugerville Hendrickson,74.84,151.95,92.99,170.1,415.04,Single-ply,SBD,M
Boys,75,5,Wade Woods,Salado,74.84,142.88,90.72,163.29,396.89,Single-ply,SBD,M
Boys,82.5,1,Trace Medlin,Salado,82.1,179.17,111.13,176.9,467.2,Single-ply,SBD,M
Boys,82.5,2,Ethan Collins,Jarrell,82.1,167.83,120.2,176.9,464.93,Single-ply,SBD,M
Boys,82.5,3,Brandon Doty,Pflugerville Hendrickson,82.1,170.1,108.86,183.7,462.66,Single-ply,SBD,M
Boys,82.5,4,Wyatt Bagley,Salado,82.1,151.95,120.2,181.44,453.59,Single-ply,SBD,M
Boys,82.5,5,Connor Cook,Salado,82.1,165.56,102.06,170.1,437.72,Single-ply,SBD,M
Boys,90,1,Zavier Baggio,Salado,89.81,183.7,111.13,183.7,478.54,Single-ply,SBD,M
Boys,90,2,Ashten Sniggs,Salado,89.81,181.44,111.13,158.76,451.32,Single-ply,SBD,M
Boys,90,3,Sebastian Rodriguez,Pflugerville Hendrickson,89.81,142.88,111.13,190.51,444.52,Single-ply,SBD,M
Boys,90,4,Byron Roa Martinez,Jarrell,89.81,156.49,115.67,165.56,437.72,Single-ply,SBD,M
Boys,90,5,Joe Sampson,Salado,89.81,156.49,104.33,165.56,426.38,Single-ply,SBD,M
Boys,90,6,Andrew Sniggs,Salado,89.81,102.06,106.59,170.1,378.75,Single-ply,SBD,M
Boys,90,7,Hunter Pannell,Salado,89.81,,92.99,151.95,244.94,Single-ply,BD,M
Boys,100,1,Zach Adams,Salado,99.79,229.06,136.08,190.51,555.65,Single-ply,SBD,M
Boys,100,2,Luciano Garza,Jarrell,99.79,206.38,133.81,199.58,539.77,Single-ply,SBD,M
Boys,100,3,Devin Gregory,Pflugerville Hendrickson,99.79,195.04,115.67,219.99,530.7,Single-ply,SBD,M
Boys,100,4,Bobby Cunningham,Salado,99.79,195.04,115.67,190.51,501.22,Single-ply,SBD,M
Boys,100,5,Carlitos Dones,Jarrell,99.79,210.92,97.52,183.7,492.15,Single-ply,SBD,M
Boys,100,6,Juan Castillo,Salado,99.79,156.49,106.59,151.95,415.04,Single-ply,SBD,M
Boys,100,7,Hunter Robertson,Pflugerville Hendrickson,99.79,161.03,92.99,161.03,415.04,Single-ply,SBD,M
Boys,100,8,Kash Eddelman,Salado,99.79,124.74,99.79,167.83,392.36,Single-ply,SBD,M
Boys,100,9,Jareth Rosalez,Jarrell,99.79,142.88,83.91,142.88,369.68,Single-ply,SBD,M
Boys,100,10,Ryan Starritt,Salado,99.79,185.97,90.72,,276.69,Single-ply,SB,M
Boys,110,1,Jace Chambers,Pflugerville Hendrickson,109.77,215.46,122.47,238.14,576.06,Single-ply,SBD,M
Boys,110,2,Dylan Syms,Jarrell,109.77,210.92,149.69,192.78,553.38,Single-ply,SBD,M
Boys,110,3,Adrian Bravo,Jarrell,109.77,210.92,158.76,183.7,553.38,Single-ply,SBD,M
Boys,110,4,Rey Sanchez,Pflugerville Hendrickson,109.77,210.92,111.13,210.92,532.97,Single-ply,SBD,M
Boys,110,5,Thomas Clawson,Jarrell,109,165.56,115.67,170.1,451.32,Single-ply,SBD,M
Boys,125,1,Walker Riley,Pflugerville Hendrickson,124.74,201.85,111.13,197.31,510.29,Single-ply,SBD,M
Boys,125,2,Robert Soto,Salado,124.74,167.83,92.99,174.63,435.45,Single-ply,SBD,M
Boys,125,3,Blake Madden,Salado,124.74,149.69,92.99,156.49,399.16,Single-ply,SBD,M
Boys,125+,1,Dominic Pastucci,Pflugerville Hendrickson,125.19,249.48,165.56,258.55,673.58,Single-ply,SBD,M
Boys,125+,2,Domenic Valdespino,Pflugerville Hendrickson,125.19,258.55,151.95,254.01,664.51,Single-ply,SBD,M
Boys,125+,3,Jonah Bassa,Salado,125.19,260.82,147.42,238.14,646.37,Single-ply,SBD,M
