Name,Sex,BodyweightKg,WeightClassKg,Squat1Kg,Squat2Kg,Squat3Kg,Best3SquatKg,Bench1Kg,Bench2Kg,Bench3Kg,Best3BenchKg,Deadlift1Kg,Deadlift2Kg,Deadlift3Kg,Best3DeadliftKg,TotalKg,Equipment,Event,Place,Division
Jasmin Higgs,F,56.6,57,140,147.5,150,150,95,102.5,105,105,150,157.5,160,160,415,Single-ply,SBD,1,Open
David Tran-Cong,M,95.9,105,250,260,-270,260,-200,200,-210,200,260,270,-280,270,730,Single-ply,SBD,1,Open
Michelle Robson-Garth,F,46.45,47,45,47.5,-57.5,47.5,-30,30,-35,30,52.5,57.5,62.5,62.5,140,Raw,SBD,1,Open
Patricia Van Rein,F,47.6,52,-50,-55,-55,,-30,-35,-35,,70,75,80,80,,Raw,SBD,DQ,Open
Emily Willcock,F,65.8,72,40,50,-55,50,27.5,-32.5,-32.5,27.5,55,65,70,70,147.5,Raw,SBD,4,Open
Zoe Lake,F,67.6,72,50,55,60,60,42.5,45,-47.5,45,85,92.5,100,100,205,Raw,SBD,2,Open
Nadine Tey,F,68.05,72,65,-70,-70,65,37.5,-40,-40,37.5,85,90,92.5,92.5,195,Raw,SBD,3,Open
Ann Riley,F,71.7,72,50,60,75,75,55,62.5,-65,62.5,110,120,127.5,127.5,265,Raw,SBD,1,Open
Katrina Evans,F,90.25,84+,100,105,110,110,70,-75,-75,70,125,130,135,135,315,Raw,SBD,1,Open
Samed Eriklioglu,M,65.25,66,75,80,87.5,87.5,70,75,80,80,110,115,120,120,287.5,Raw,SBD,1,Open
Eric Soong,M,67.8,74,180,-200,-200,180,90,-97.5,-97.5,90,180,200,207.5,207.5,477.5,Raw,SBD,2,Open
Joshua Wood,M,69.7,74,130,140,147.5,147.5,85,90,-92.5,90,185,190,200,200,437.5,Raw,SBD,3,Open
Lorcan Whitmore,M,72.85,74,95,102.5,107.5,107.5,60,65,-70,65,135,-142.5,142.5,142.5,315,Raw,SBD,6,Open
Russell Gan,M,73.2,74,165,175,182.5,182.5,95,100,-105,100,202.5,217.5,232.5,232.5,515,Raw,SBD,1,Open
Luke Richardson,M,73.75,74,110,115,-120,115,70,75,-77.5,75,162.5,170,-175,170,360,Raw,SBD,5,Open
Evgeny Rokhlin,M,73.85,74,125,130,135,135,92.5,97.5,-100,97.5,175,187.5,-200,187.5,420,Raw,SBD,4,Open
Dan Heard,M,74.95,83,140,145,150,150,92.5,97.5,-100,97.5,150,160,-165,160,407.5,Raw,SBD,5,Open
David Harrison,M,80.1,83,180,190,-197.5,190,115,122.5,-127.5,122.5,200,217.5,232.5,232.5,545,Raw,SBD,1,Open
Fraser Campbell,M,80.6,83,110,115,122.5,122.5,87.5,92.5,-95,92.5,137.5,150,160,160,375,Raw,SBD,6,Open
Christopher Mercoulia,M,80.65,83,145,150,160,160,125,-135,-135,125,205,-220,220,220,505,Raw,SBD,2,Open
Sean Connelly,M,81.85,83,142.5,152.5,162.5,162.5,100,-107.5,-107.5,100,195,-202.5,-202.5,195,457.5,Raw,SBD,4,Open
Linh Vu,M,82.2,83,155,162.5,170,170,80,85,90,90,190,200,205,205,465,Raw,SBD,3,Open
Stephen Kasinski,M,84,93,150,160,165,165,100,105,-107.5,105,177.5,190,200,200,470,Raw,SBD,6,Open
Ray Ancilleri,M,86.15,93,110,120,125,125,90,97.5,102.5,102.5,150,160,175,175,402.5,Raw,SBD,11,Open
Barry Wilkes,M,86.4,93,105,115,120,120,90,95,100,100,150,160,170,170,390,Raw,SBD,12,Open
Nathan Payne,M,87.9,93,120,127.5,137.5,137.5,90,95,100,100,170,180,190,190,427.5,Raw,SBD,10,Open
Eric Ovens,M,89.7,93,-185,185,-200,185,-130,-130,-130,,-200,,,,,Raw,SBD,DQ,Open
Matthew Young,M,89.9,93,150,-155,-155,150,110,115,-117.5,115,180,-185,-185,180,445,Raw,SBD,8,Open
Matthew Middleton,M,90.25,93,220,240,-255,240,170,175,-177.5,175,230,240,-250,240,655,Raw,SBD,1,Open
Brenden Aldridge,M,90.45,93,150,165,175,175,105,-112.5,-112.5,105,190,210,217.5,217.5,497.5,Raw,SBD,5,Open
Aaron Novak,M,90.55,93,-170,180,190,190,130,140,-145,140,200,220,235,235,565,Raw,SBD,2,Open
Jamie Lawry,M,91.05,93,140,145,-147.5,145,95,-97.5,-97.5,95,185,200,205,205,445,Raw,SBD,9,Open
Matthew Plozza,M,91.7,93,145,152.5,-160,152.5,97.5,102.5,-107.5,102.5,185,195,200,200,455,Raw,SBD,7,Open
Bill Clancy,M,91.75,93,-170,180,192.5,192.5,110,120,-127.5,120,175,190,200,200,512.5,Raw,SBD,3,Open
Richard Falla,M,92.9,93,170,182.5,-187.5,182.5,125,132.5,137.5,137.5,170,-180,180,180,500,Raw,SBD,4,Open
Sean Whittington,M,95.55,105,125,132.5,140,140,85,90,95,95,155,162.5,170,170,405,Raw,SBD,4,Open
Nick Old,M,100.2,105,120,130,140,140,112.5,117.5,125,125,150,165,180,180,445,Raw,SBD,3,Open
Leigh Donnellan,M,102.5,105,185,195,200,200,127.5,132.5,135,135,227.5,235,240,240,575,Raw,SBD,2,Open
Brad Keogh,M,104.95,105,212.5,220,225,225,135,-140,-140,135,227.5,240,245,245,605,Raw,SBD,1,Open
Alan Kissick,M,114.35,120,152.5,160,165,165,97.5,102.5,107.5,107.5,185,195,202.5,202.5,475,Raw,SBD,3,Open
Jack Chapman,M,116.3,120,175,190,200,200,132.5,140,-150,140,180,205,210,210,550,Raw,SBD,1,Open
Adam Player,M,118.35,120,-200,200,-240,200,150,-155,155,155,190,-220,-220,190,545,Raw,SBD,2,Open
Justin Brugoglio,M,80.2,83,,,,,-196,-196,-196,,,,,,,Single-ply,B,DQ,Open
David Brugoglio,M,82.3,83,,,,,197.5,200,-206,200,,,,,200,Single-ply,B,1,Open
Andi Mason,F,45.45,47,,,,,57.5,-60,60,60,,,,,60,Raw,B,1,Open
Anna Papij,F,74.2,84,,,,,57.5,60,-65,60,,,,,60,Raw,B,1,Open
Joanna Baker,F,106.3,84+,,,,,55,57.5,60,60,,,,,60,Raw,B,1,Open
Paul Tesoriero,M,71.95,74,,,,,132.5,-137.5,-137.5,132.5,,,,,132.5,Raw,B,1,Open
Max Riebl,M,104.1,105,,,,,160,166.5,-170,166.5,,,,,166.5,Raw,B,1,Open
