Event,Sex,Name,State,BodyweightKg,WeightClassKg,Division,Best3SquatKg,Best3BenchKg,Best3DeadliftKg,TotalKg,Equipment,Place
SBD,M,Jesse Jamison,SK,82.0,82.5,Open,240.0,137.5,227.5,605.0,Single-ply,1
SBD,M,Travis Bloomer,MB,132.4,125+,Open,260.0,237.5,305.0,802.5,Single-ply,1
SBD,M,Shaun Caruk,MB,134.5,125+,Open,182.5,230.0,205.0,617.5,Single-ply,2
SBD,M,Harvey Hanec,MB,95.4,100,Master 3,190.0,147.5,172.5,510.0,Single-ply,1
SBD,M,Darryl Campbell,SK,88.0,90,Master 1,182.5,105.0,175.0,462.5,Single-ply,1
SBD,M,Trevor Winfield,MB,123.1,125,Master 1,230.0,275.0,242.5,747.5,Single-ply,1
SBD,M,Jeremy Lundgren,SK,106.4,110,Junior,215.0,132.5,220.0,567.5,Single-ply,1
B,M,Travis Mattice,MB,88.5,90,Open,,165.0,,165.0,Single-ply,1
B,M,Ryan Espey,MB,151.9,125+,Open,,240.0,,240.0,Single-ply,1
